0.232,0.071
0.088,0.093
0.121,0.082
0.079,0.1
0.104,0.072
0.091,0.109
0.094,0.112
0.123,0.112
0.103,0.078
0.106,0.116
0.085,0.071
0.098,0.078
0.105,0.111
0.092,0.117
0.091,0.085
0.104,0.098
0.082,0.092
0.106,0.121
0.116,0.117
0.083,0.137
0.095,0.098
0.086,0.093
0.136,0.077
0.082,0.075
0.095,0.081
0.096,0.124
0.121,0.073
0.122,0.102
0.106,0.147
0.095,0.102
0.115,0.079
0.097,0.072
0.163,0.134
0.086,0.107
0.092,0.118
0.103,0.072
0.102,0.13
0.089,0.071
0.085,0.079
0.083,0.073
0.104,0.101
0.102,0.135
0.09,0.11
0.096,0.079
0.107,0.072
0.113,0.082
0.116,0.095
0.102,0.132
0.1,0.085
0.098,0.083
0.108,0.091
0.14,0.082
0.102,0.07
0.102,0.077
0.127,0.071
0.096,0.074
0.107,0.0810000000001
0.098,0.073
0.132,0.073
0.126,0.069
0.111,0.103
0.099,0.085
0.115,0.086
0.096,0.07
0.091,0.071
0.089,0.095
0.158,0.08
0.095,0.066
0.107,0.071
0.094,0.097
0.112,0.099
0.108,0.072
0.102,0.07
0.088,0.065
0.106,0.066
0.116,0.098
0.092,0.081
0.11,0.069
0.09,0.079
0.102,0.072
0.117,0.099
0.135,0.075
0.116,0.122
0.108,0.089
0.131,0.129
0.142,0.079
0.101,0.092
0.097,0.068
0.101,0.069
0.108,0.074
0.109,0.104
0.117,0.078
0.152,0.072
0.102,0.07
0.126,0.076
0.122,0.097
0.125,0.097
0.101,0.075
0.12,0.077
0.112,0.086
0.098,0.076
0.12,0.096
0.138,0.102
0.103,0.072
0.109,0.08
0.16,0.077
0.118,0.093
0.118,0.088
0.123,0.101
0.11,0.068
0.128,0.066
0.121,0.089
0.125,0.096
0.127,0.089
0.119,0.065
0.116,0.071
0.131,0.088
0.112,0.085
0.085,0.076
0.122,0.075
0.139,0.114
0.113,0.068
0.091,0.089
0.109,0.105
0.145,0.07
0.086,0.074
0.131,0.067
0.1,0.07
0.125,0.077
0.11,0.097
0.1,0.074
0.103,0.127
0.083,0.116
0.141,0.084
0.086,0.074
0.12,0.071
0.09,0.08
0.126,0.124
0.101,0.095
0.119,0.082
0.092,0.078
0.104,0.079
0.102,0.08
0.143,0.125
0.127,0.085
0.099,0.065
0.119,0.072
0.133,0.094
0.093,0.087
0.148,0.086
0.12,0.071
0.135,0.109
0.121,0.099
0.099,0.134
0.107,0.102
0.105,0.075
0.083,0.071
0.117,0.116
0.125,0.092
0.123,0.073
0.104,0.08
0.103,0.072
0.108,0.075
0.104,0.09
0.109,0.085
0.079,0.114
0.106,0.07
0.13,0.22
0.113,0.099
0.082,0.082
0.103,0.074
0.11,0.088
0.107,0.085
0.106,0.092
0.103,0.071
0.108,0.09
0.13,0.077
0.102,0.098
0.09,0.099
0.131,0.087
0.104,0.088
0.099,0.073
0.1,0.116
0.083,0.109
0.102,0.082
0.154,0.079
0.109,0.115
0.116,0.096
0.089,0.081
0.101,0.083
0.1,0.082
0.086,0.091
0.1,0.082
0.101,0.114
0.101,0.082
0.094,0.079
0.119,0.088
0.105,0.095
0.146,0.094
0.128,0.083
0.088,0.075
0.132,0.084
0.108,0.075
0.191,0.072
0.083,0.071
0.104,0.081
0.116,0.101
0.109,0.082
0.08,0.078
0.089,0.104
0.077,0.071
0.096,0.072
0.086,0.076
0.099,0.09
0.085,0.074
0.114,0.085
0.157,0.08
0.104,0.092
0.104,0.074
0.089,0.093
0.082,0.126
0.114,0.089
0.12,0.075
0.1,0.098
0.082,0.087
0.111,0.072
0.105,0.072
0.093,0.072
0.12,0.089
0.089,0.092
0.084,0.09
0.075,0.108
0.209,0.072
0.203,0.074
0.123,0.091
0.093,0.07
0.089,0.114
0.091,0.105
0.114,0.103
0.078,0.07
0.09,0.074
0.099,0.094
0.102,0.108
0.096,0.066
0.085,0.074
0.107,0.146
0.08,0.074
0.094,0.079
0.095,0.076
0.109,0.095
0.094,0.079
0.089,0.109
0.083,0.079
0.138,0.072
0.101,0.074
0.092,0.073
0.106,0.089
0.106,0.102
0.083,0.078
0.082,0.074
0.113,0.075
0.119,0.091
0.078,0.082
0.089,0.074
0.088,0.074
0.103,0.072
0.075,0.09
0.143,0.091
0.11,0.084
0.077,0.075
0.082,0.075
0.081,0.073
0.073,0.07
0.124,0.096
0.076,0.076
0.077,0.074
0.08,0.089
0.1,0.083
0.074,0.075
0.098,0.101
0.132,0.08
0.077,0.075
0.078,0.131
0.083,0.09
0.07,0.112
0.075,0.099
0.101,0.098
0.124,0.095
0.088,0.099
0.075,0.098
0.209,0.07
0.093,0.149
0.113,0.074
0.12,0.076
0.099,0.087
0.112,0.079
0.082,0.067
0.073,0.0849999999999
0.087,0.097
0.066,0.089
0.074,0.075
0.101,0.082
0.073,0.106
0.072,0.101
0.118,0.101
0.074,0.076
0.07,0.085
0.136,0.075
0.106,0.101
0.074,0.085
0.093,0.07
0.072,0.076
0.096,0.081
0.072,0.091
0.076,0.084
0.08,0.082
0.076,0.081
0.093,0.074
0.076,0.074
0.08,0.08
0.081,0.081
0.072,0.075
0.086,0.081
0.073,0.074
0.071,0.088
0.096,0.102
0.137,0.106
0.092,0.076
0.074,0.071
0.073,0.072
0.104,0.074
0.076,0.071
0.079,0.085
0.098,0.099
0.099,0.104
0.078,0.1
0.09,0.104
0.091,0.078
0.074,0.087
0.078,0.077
0.075,0.081
0.1,0.105
0.076,0.078
0.074,0.094
0.134,0.104
0.119,0.095
0.076,0.073
0.094,0.117
0.074,0.106
0.113,0.072
0.155,0.072
0.105,0.097
0.096,0.102
0.097,0.078
0.075,0.078
0.069,0.091
0.075,0.085
0.084,0.086
0.093,0.128
0.076,0.083
0.074,0.072
0.077,0.077
0.077,0.087
0.109,0.106
0.08,0.303
0.092,0.075
0.095,0.071
0.085,0.08
0.071,0.081
0.071,0.092
0.074,0.102
0.077,0.088
0.111,0.117
0.087,0.122
0.089,0.099
0.123,0.077
0.073,0.072
0.071,0.096
0.065,0.103
0.111,0.101
0.091,0.1
0.074,0.073
0.131,0.096
0.087,0.073
0.073,0.067
0.076,0.075
0.066,0.078
0.071,0.116
0.086,0.134
0.086,0.121
0.127,0.108
0.097,0.156
0.093,0.091
0.079,0.069
0.073,0.093
0.092,0.073
0.101,0.116
0.074,0.085
0.079,0.074
0.075,0.1
0.083,0.074
0.07,0.072
0.07,0.072
0.076,0.097
0.109,0.094
0.1,0.096
0.125,0.094
0.124,0.105
0.08,0.089
0.105,0.086
0.078,0.075
0.086,0.101
0.09,0.078
0.074,0.072
0.088,0.094
0.08,0.067
0.072,0.07
0.079,0.077
0.086,0.105
0.073,0.082
0.078,0.071
0.087,0.076
0.086,0.075
0.073,0.084
0.072,0.202
0.102,0.103
0.078,0.08
0.081,0.099
0.093,0.103
0.097,0.094
0.072,0.077
0.077,0.072
0.069,0.072
0.073,0.09
0.069,0.069
0.079,0.089
0.118,0.074
0.074,0.086
0.072,0.066
0.085,0.075
0.074,0.08
0.078,0.074
0.074,0.098
0.07,0.073
0.092,0.071
0.084,0.08
0.073,0.103
0.076,0.075
0.122,0.076
0.072,0.07
0.072,0.077
0.075,0.111
0.073,0.076
0.088,0.093
0.074,0.073
0.073,0.079
0.069,0.082
0.072,0.09
0.088,0.082
0.093,0.098
0.087,0.104
0.132,0.089
0.102,0.09
0.088,0.204
0.12,0.091
0.115,0.094
0.084,0.092
0.073,0.076
0.066,0.071
0.161,0.066
0.072,0.089
0.079,0.071
0.081,0.079
0.073,0.075
0.072,0.072
0.08,0.073
0.075,0.069
0.065,0.071
0.074,0.112
0.074,0.095
0.09,0.1
0.118,0.073
0.071,0.092
0.069,0.068
0.072,0.081
0.105,0.109
0.082,0.0790000000001
0.076,0.077
0.1,0.133
0.101,0.107
0.097,0.072
0.076,0.075
0.07,0.071
0.068,0.093
0.077,0.078
0.099,0.101
0.074,0.1
0.086,0.093
0.082,0.086
0.078,0.115
0.082,0.085
0.078,0.071
0.105,0.087
0.074,0.068
0.096,0.178
0.087,0.081
0.071,0.105
0.077,0.07
0.074,0.113
0.071,0.131
0.115,0.081
0.083,0.067
0.077,0.078
0.072,0.08
0.072,0.071
0.083,0.097
0.109,0.073
0.079,0.084
0.09,0.093
0.107,0.099
0.127,0.112
0.079,0.085
0.072,0.074
0.071,0.082
0.075,0.085
0.105,0.073
0.065,0.073
0.071,0.071
0.102,0.071
0.085,0.077
0.086,0.095
0.099,0.088
0.092,0.12
0.094,0.074
0.082,0.095
0.1,0.094
0.073,0.068
0.073,0.079
0.074,0.073
0.108,0.098
0.079,0.127
0.073,0.091
0.073,0.233
0.112,0.073
0.067,0.071
0.101,0.071
0.072,0.076
0.092,0.075
0.104,0.11
0.08,0.076
0.1,0.082
0.091,0.076
0.1,0.079
0.086,0.082
0.088,0.077
0.075,0.089
0.07,0.07
0.081,0.071
0.12,0.086
0.085,0.116
0.102,0.08
0.075,0.092
0.075,0.069
0.073,0.07
0.094,0.085
0.127,0.093
0.131,0.088
0.162,0.102
0.093,0.094
0.146,0.086
0.1,0.108
0.168,0.094
0.244,0.07
0.111,0.075
0.123,0.096
0.074,0.072
0.082,0.126
0.102,0.092
0.156,0.091
0.108,0.074
0.154,0.069
0.138,0.113
0.088,0.095
0.097,0.082
0.075,0.071
0.086,0.076
0.1,0.123
0.095,0.127
0.083,0.075
0.07,0.093
0.112,0.097
0.09,0.125
0.069,0.076
0.092,0.103
0.098,0.079
0.096,0.101
0.11,0.073
0.12,0.088
0.101,0.131
0.089,0.071
0.113,0.112
0.106,0.072
0.07,0.079
0.075,0.075
0.071,0.076
0.077,0.11
0.081,0.076
0.097,0.093
0.092,0.1
0.066,0.09
0.076,0.072
0.088,0.075
0.078,0.069
