Sending, 1000, search, requests, to, 192.168.1.3
0.185, 0.065
0.092, 0.113
0.09, 0.098
0.146, 0.101
0.092, 0.079
0.099, 0.145
0.215, 0.082
0.084, 0.099
0.089, 0.097
0.089, 0.131
0.103, 0.097
0.088, 0.073
0.078, 0.077
0.08, 0.088
0.104, 0.181
0.093, 0.121
0.085, 0.168
0.116, 0.079
0.116, 0.097
0.1, 0.088
0.082, 0.095
0.143, 0.069
0.099, 0.11
0.08, 0.084
0.076, 0.083
0.11, 0.091
0.085, 0.101
0.081, 0.088
0.112, 0.085
0.089, 0.089
0.087, 0.08
0.103, 0.089
0.095, 0.086
0.096, 0.137
0.104, 0.111
0.122, 0.108
0.132, 0.138
0.083, 0.102
0.089, 0.078
0.122, 0.072
0.104, 0.093
0.103, 0.073
0.116, 0.203
0.108, 0.109
0.134, 0.089
0.111, 0.097
0.157, 0.096
0.09, 0.086
0.097, 0.111
0.097, 0.072
0.093, 0.073
0.13, 0.133
0.151, 0.107
0.095, 0.11
0.111, 0.071
0.129, 0.066
0.091, 0.064
0.142, 0.108
0.084, 0.082
0.106, 0.087
0.106, 0.078
0.116, 0.08
0.103, 0.089
0.109, 0.108
0.11, 0.084
0.109, 0.105
0.086, 0.1
0.102, 0.07
0.104, 0.122
0.107, 0.13
0.121, 0.094
0.113, 0.0790000000001
0.118, 0.078
0.122, 0.107
0.123, 0.0790000000001
0.115, 0.099
0.111, 0.071
0.11, 0.077
0.123, 0.093
0.153, 0.087
0.185, 0.105
0.12, 0.088
0.108, 0.092
0.097, 0.091
0.132, 0.077
0.124, 0.095
0.093, 0.127
0.11, 0.107
0.11, 0.076
0.104, 0.081
0.133, 0.075
0.113, 0.097
0.113, 0.098
0.118, 0.081
0.121, 0.103
0.129, 0.068
0.09, 0.074
0.105, 0.074
0.092, 0.09
0.146, 0.108
0.094, 0.074
0.16, 0.104
0.126, 0.079
0.104, 0.099
0.106, 0.112
0.12, 0.11
0.108, 0.073
0.096, 0.09
0.125, 0.079
0.105, 0.113
0.098, 0.077
0.098, 0.074
0.085, 0.072
0.092, 0.085
0.098, 0.098
0.103, 0.096
0.123, 0.146
0.085, 0.138
0.095, 0.098
0.103, 0.097
0.079, 0.073
0.17, 0.084
0.093, 0.074
0.095, 0.105
0.102, 0.155
0.116, 0.082
0.101, 0.106
0.1, 0.092
0.086, 0.083
0.112, 0.099
0.096, 0.073
0.11, 0.073
0.098, 0.096
0.096, 0.071
0.119, 0.096
0.1, 0.073
0.118, 0.098
0.115, 0.102
0.088, 0.092
0.101, 0.135
0.109, 0.093
0.11, 0.091
0.092, 0.077
0.102, 0.106
0.105, 0.09
0.089, 0.071
0.12, 0.076
0.092, 0.077
0.101, 0.084
0.112, 0.078
0.101, 0.108
0.127, 0.123
0.134, 0.155
0.176, 0.09
0.099, 0.117
0.102, 0.089
0.079, 0.083
0.142, 0.141
0.114, 0.09
0.115, 0.072
0.119, 0.098
0.107, 0.104
0.148, 0.108
0.101, 0.09
0.112, 0.095
0.111, 0.077
0.09, 0.072
0.095, 0.077
0.143, 0.094
0.089, 0.09
0.082, 0.07
0.098, 0.133
0.096, 0.128
0.082, 0.091
0.076, 0.139
0.113, 0.107
0.078, 0.09
0.1, 0.076
0.099, 0.094
0.099, 0.161
0.128, 0.097
0.096, 0.115
0.07, 0.159
0.123, 0.089
0.126, 0.147
0.091, 0.167
0.099, 0.085
0.126, 0.143
0.1, 0.279
0.113, 0.179
0.087, 0.077
0.093, 0.089
0.096, 0.146
0.131, 0.102
0.082, 0.115
0.099, 0.108
0.101, 0.076
0.11, 0.105
0.126, 0.119
0.101, 0.153
0.113, 0.264
0.106, 0.101
0.092, 0.117
0.108, 0.178
0.116, 0.103
0.178, 0.112
0.085, 0.077
0.082, 0.078
0.106, 0.106
0.099, 0.144
0.109, 0.085
0.148, 0.144
0.133, 0.1
0.077, 0.115
0.15, 0.112
0.101, 0.082
0.149, 0.079
0.107, 0.13
0.1, 0.105
0.085, 0.12
0.106, 0.133
0.205, 0.099
0.134, 0.073
0.097, 0.1
0.09, 0.081
0.119, 0.066
0.092, 0.072
0.096, 0.079
0.1, 0.098
0.099, 0.081
0.099, 0.086
0.094, 0.08
0.11, 0.07
0.085, 0.071
0.097, 0.119
0.099, 0.112
0.099, 0.092
0.095, 0.071
0.229, 0.073
0.092, 0.072
0.089, 0.104
0.119, 0.114
0.122, 0.071
0.11, 0.1
0.153, 0.123
0.095, 0.099
0.079, 0.075
0.116, 0.08
0.182, 0.078
0.108, 0.086
0.113, 0.097
0.106, 0.08
0.109, 0.111
0.118, 0.085
0.112, 0.092
0.142, 0.071
0.1, 0.086
0.091, 0.086
0.098, 0.133
0.077, 0.077
0.14, 0.081
0.218, 0.099
0.097, 0.084
0.081, 0.103
0.095, 0.09
0.146, 0.092
0.119, 0.094
0.077, 0.089
0.097, 0.131
0.115, 0.114
0.139, 0.096
0.111, 0.131
0.099, 0.086
0.119, 0.082
0.104, 0.074
0.078, 0.096
0.079, 0.096
0.123, 0.109
0.086, 0.071
0.104, 0.105
0.079, 0.076
0.099, 0.074
0.109, 0.079
0.089, 0.075
0.09, 0.073
0.079, 0.071
0.528, 0.072
0.225, 0.114
0.099, 0.116
0.082, 0.084
0.128, 0.095
0.104, 0.102
0.338, 0.111
0.104, 0.083
0.088, 0.075
0.093, 0.107
0.092, 0.087
0.22, 0.121
0.085, 0.081
0.074, 0.07
0.075, 0.082
0.071, 0.073
0.096, 0.156
0.103, 0.079
0.096, 0.073
0.097, 0.098
0.095, 0.073
0.133, 0.156
0.069, 0.14
0.071, 0.087
0.098, 0.079
0.085, 0.122
0.101, 0.1
0.138, 0.108
0.088, 0.075
0.164, 0.261
0.1, 0.13
0.117, 0.129
0.087, 0.12
0.116, 0.144
0.092, 0.076
0.071, 0.074
0.071, 0.096
0.094, 0.101
0.098, 0.101
0.076, 0.08
0.098, 0.089
0.074, 0.09
0.073, 0.073
0.091, 0.073
0.101, 0.097
0.074, 0.096
0.149, 0.083
0.091, 0.076
0.105, 0.12
0.083, 0.103
0.108, 0.092
0.186, 0.106
0.119, 0.103
0.08, 0.098
0.093, 0.102
0.077, 0.09
0.088, 0.094
0.084, 0.085
0.076, 0.083
0.106, 0.071
0.07, 0.097
0.1, 0.094
0.076, 0.085
0.071, 0.092
0.096, 0.079
0.137, 0.081
0.101, 0.097
0.106, 0.086
0.113, 0.093
0.126, 0.115
0.082, 0.09
0.098, 0.074
0.115, 0.098
0.111, 0.088
0.105, 0.105
0.107, 0.127
0.105, 0.075
0.178, 0.108
0.086, 0.104
0.113, 0.113
0.26, 0.211
0.145, 0.101
0.136, 0.13
0.078, 0.082
0.1, 0.12
0.139, 0.094
0.089, 0.075
0.139, 0.1
0.106, 0.081
0.165, 0.087
0.152, 0.236
0.104, 0.081
0.091, 0.078
0.102, 0.078
0.086, 0.111
0.083, 0.106
0.081, 0.082
0.081, 0.091
0.103, 0.163
0.077, 0.073
0.077, 0.096
0.103, 0.097
0.084, 0.245
0.093, 0.078
0.102, 0.112
0.072, 0.111
0.075, 0.128
0.081, 0.087
0.093, 0.078
0.076, 0.096
0.073, 0.103
0.108, 0.087
0.078, 0.08
0.102, 0.103
0.093, 0.104
0.073, 0.088
0.071, 0.076
0.068, 0.086
0.066, 0.075
0.08, 0.071
0.212, 0.096
0.132, 0.127
0.274, 0.076
0.153, 0.074
0.08, 0.077
0.12, 0.072
0.081, 0.079
0.08, 0.112
0.075, 0.099
0.093, 0.123
0.1, 0.098
0.132, 0.195
0.096, 0.167
0.151, 0.165
0.106, 0.086
0.118, 0.107
0.097, 0.09
0.116, 0.149
0.104, 0.291
0.092, 0.134
0.184, 0.078
0.103, 0.088
0.142, 0.101
0.135, 0.093
0.089, 0.092
0.077, 0.078
0.108, 0.118
0.088, 0.11
0.158, 0.08
0.126, 0.083
0.108, 0.07
0.102, 0.091
0.099, 0.09
0.11, 0.085
0.07, 0.075
0.104, 0.069
0.098, 0.07
0.118, 0.138
0.096, 0.118
0.112, 0.101
0.099, 0.118
0.1, 0.103
0.192, 0.102
0.087, 0.072
0.106, 0.071
0.109, 0.122
0.118, 0.0709999999999
0.105, 0.072
0.109, 0.085
0.116, 0.0910000000001
0.106, 0.077
0.083, 0.0870000000001
0.077, 0.095
0.136, 0.248
0.223, 0.0920000000001
0.104, 0.076
0.426, 0.07
0.181, 0.076
0.109, 0.0790000000001
0.143, 0.107
0.101, 0.12
0.086, 0.073
0.073, 0.097
0.143, 0.137
0.084, 0.103
0.076, 0.0730000000001
0.077, 0.1
0.069, 0.0990000000001
0.164, 0.137
0.073, 0.103
0.104, 0.09
0.204, 0.0709999999999
0.102, 0.104
0.101, 0.085
0.143, 0.075
0.103, 0.0790000000001
0.104, 0.077
0.103, 0.12
0.092, 0.0720000000001
0.071, 0.0760000000001
0.09, 0.081
0.083, 0.0829999999999
0.098, 0.088
0.07, 0.108
0.109, 0.074
0.165, 0.084
0.083, 0.097
0.086, 0.096
0.081, 0.111
0.184, 0.09
0.169, 0.1
0.225, 0.0790000000001
0.09, 0.096
0.109, 0.09
0.108, 0.119
0.108, 0.105
0.076, 0.125
0.094, 0.0800000000001
0.07, 0.084
0.077, 0.18
0.08, 0.11
0.113, 0.114
0.082, 0.114
0.075, 0.086
0.071, 0.099
0.103, 0.172
0.126, 0.112
0.087, 0.0870000000001
0.092, 0.076
0.127, 0.092
0.154, 0.0830000000001
0.087, 0.0830000000001
0.086, 0.0829999999999
0.089, 0.0760000000001
0.078, 0.149
0.12, 0.145
0.084, 0.123
0.069, 0.115
0.069, 0.093
0.085, 0.078
0.124, 0.073
0.109, 0.082
0.097, 0.085
0.147, 0.104
0.079, 0.082
0.088, 0.096
0.074, 0.078
0.085, 0.256
0.093, 0.126
0.101, 0.075
0.092, 0.073
0.072, 0.1
0.075, 0.115
0.07, 0.071
0.084, 0.0939999999999
0.098, 0.12
0.07, 0.0800000000001
0.119, 0.099
0.096, 0.145
0.118, 0.097
0.078, 0.089
0.073, 0.114
0.105, 0.124
0.091, 0.076
0.082, 0.092
0.094, 0.1
0.114, 0.119
0.086, 0.082
0.107, 0.103
0.149, 0.078
0.102, 0.135
0.098, 0.0830000000001
0.093, 0.105
0.08, 0.077
0.119, 0.078
0.104, 0.139
0.08, 0.101
0.101, 0.0720000000001
0.142, 0.104
0.118, 0.088
0.072, 0.11
0.076, 0.125
0.068, 0.0749999999999
0.101, 0.124
0.085, 0.142
0.085, 0.112
0.071, 0.107
0.255, 0.131
0.109, 0.126
0.08, 0.11
0.076, 0.085
0.1, 0.108
0.088, 0.112
0.076, 0.136
0.073, 0.0830000000001
0.104, 0.111
0.114, 0.121
0.103, 0.1
0.074, 0.0739999999999
0.149, 0.107
0.072, 0.073
0.081, 0.082
0.086, 0.074
0.14, 0.096
0.096, 0.123
0.109, 0.0990000000001
0.08, 0.093
0.099, 0.095
0.117, 0.091
0.089, 0.0790000000001
0.113, 0.076
0.08, 0.0749999999999
0.097, 0.113
0.097, 0.0749999999999
0.112, 0.115
0.069, 0.088
0.077, 0.081
0.069, 0.0709999999999
0.109, 0.0789999999999
0.084, 0.07
0.205, 0.11
0.104, 0.103
0.086, 0.0910000000001
0.109, 0.101
0.081, 0.074
0.086, 0.0699999999999
0.129, 0.102
0.133, 0.078
0.08, 0.106
0.084, 0.077
0.105, 0.072
0.075, 0.101
0.082, 0.091
0.12, 0.085
0.074, 0.0859999999999
0.091, 0.084
0.071, 0.071
0.105, 0.171
0.091, 0.0790000000001
0.105, 0.103
0.1, 0.093
0.091, 0.07
0.106, 0.078
0.099, 0.094
0.077, 0.0789999999999
0.096, 0.069
0.098, 0.111
0.083, 0.07
0.081, 0.0869999999999
0.08, 0.074
0.127, 0.075
0.083, 0.0869999999999
0.087, 0.0789999999999
0.092, 0.081
0.097, 0.105
0.09, 0.072
0.098, 0.096
0.086, 0.081
0.07, 0.07
0.101, 0.128
0.116, 0.106
0.086, 0.134
0.095, 0.082
0.076, 0.109
0.071, 0.073
0.103, 0.112
0.142, 0.0830000000001
0.147, 0.082
0.089, 0.102
0.091, 0.094
0.076, 0.086
0.106, 0.089
0.094, 0.116
0.145, 0.099
0.236, 0.155
0.084, 0.097
0.118, 0.0859999999999
0.176, 0.105
0.083, 0.121
0.093, 0.092
0.089, 0.077
0.12, 0.109
0.107, 0.072
0.112, 0.109
0.115, 0.132
0.104, 0.116
0.088, 0.119
0.09, 0.126
0.092, 0.127
0.086, 0.12
0.082, 0.194
0.143, 0.078
0.092, 0.093
0.079, 0.116
0.135, 0.116
0.0790000000001, 0.107
0.077, 0.109
0.072, 0.235
0.119, 0.126
0.084, 0.148
0.09, 0.0870000000001
0.09, 0.109
0.119, 0.077
0.145, 0.094
0.089, 0.073
0.08, 0.117
0.094, 0.158
0.071, 0.108
0.07, 0.081
0.106, 0.081
0.129, 0.078
0.084, 0.135
0.069, 0.093
0.114, 0.072
0.094, 0.131
0.115, 0.121
0.094, 0.112
0.074, 0.098
0.101, 0.096
0.091, 0.078
0.091, 0.106
0.07, 0.076
0.097, 0.111
0.076, 0.095
0.072, 0.082
0.07, 0.102
0.099, 0.096
0.077, 0.0790000000001
0.103, 0.0720000000001
0.089, 0.0830000000001
0.074, 0.237
0.084, 0.0840000000001
0.091, 0.076
0.144, 0.0789999999999
0.12, 0.146
0.105, 0.118
0.118, 0.14
0.1, 0.18
0.104, 0.144
0.084, 0.171
0.079, 0.11
0.07, 0.084
0.072, 0.082
0.077, 0.103
0.088, 0.102
0.077, 0.115
0.103, 0.118
0.072, 0.114
0.077, 0.089
0.098, 0.117
0.099, 0.0829999999999
0.094, 0.113
0.1, 0.093
0.107, 0.0840000000001
0.079, 0.076
0.078, 0.0990000000001
0.081, 0.189
0.101, 0.09
0.087, 0.0800000000001
0.071, 0.071
0.096, 0.11
0.072, 0.075
0.091, 0.094
0.074, 0.1
0.068, 0.099
0.069, 0.091
0.133, 0.137
0.111, 0.155
0.111, 0.098
0.104, 0.097
0.079, 0.093
0.109, 0.102
0.144, 0.08
0.161, 0.0800000000001
0.108, 0.105
0.079, 0.0789999999999
0.073, 0.111
0.079, 0.094
0.118, 0.0829999999999
0.075, 0.0869999999999
0.08, 0.069
0.07, 0.124
0.098, 0.107
0.188, 0.097
0.123, 0.0910000000001
0.091, 0.0869999999999
0.112, 0.096
0.076, 0.08
0.077, 0.0760000000001
0.093, 0.117
0.094, 0.11
0.175, 0.122
0.079, 0.0749999999999
0.092, 0.071
0.105, 0.269
0.078, 0.077
0.072, 0.077
0.094, 0.071
0.113, 0.097
0.086, 0.081
0.069, 0.0960000000001
0.072, 0.07
0.087, 0.0789999999999
0.106, 0.526
0.077, 0.094
0.078, 0.073
0.095, 0.116
0.075, 0.0979999999999
0.075, 0.0859999999999
0.07, 0.14
0.069, 0.071
0.109, 0.075
0.098, 0.076
0.116, 0.108
0.09, 0.116
0.074, 0.113
0.096, 0.0939999999999
0.111, 0.16
0.079, 0.105
0.097, 0.136
0.105, 0.101
0.178, 0.068
0.142, 0.0720000000001
0.11, 0.071
0.124, 0.119
0.08, 0.071
0.076, 0.068
0.092, 0.069
0.067, 0.1
0.07, 0.112
0.123, 0.115
0.094, 0.0910000000001
0.098, 0.0720000000001
0.074, 0.0870000000001
0.069, 0.091
0.15, 0.099
0.098, 0.102
0.133, 0.285
0.199, 0.124
0.085, 0.089
0.112, 0.078
0.106, 0.076
0.131, 0.198
0.092, 0.0849999999999
0.11, 0.147
0.197, 0.109
0.087, 0.1
0.101, 0.0830000000001
0.091, 0.114
0.104, 0.072
0.08, 0.07
0.1, 0.144
0.078, 0.101
0.091, 0.076
0.083, 0.076
0.079, 0.0889999999999
0.097, 0.0749999999999
0.075, 0.102
0.071, 0.114
0.075, 0.081
0.078, 0.076
0.081, 0.078
0.081, 0.099
0.11, 0.0939999999999
0.077, 0.092
0.113, 0.114
0.094, 0.144
0.085, 0.074
0.103, 0.0709999999999
0.085, 0.096
0.086, 0.112
0.086, 0.098
0.095, 0.123
0.076, 0.086
0.113, 0.099
0.112, 0.078
0.086, 0.074
0.079, 0.08
0.076, 0.078
0.069, 0.125
0.093, 0.123
0.0849999999999, 0.078
0.097, 0.073
0.08, 0.103
0.071, 0.084
0.073, 0.199
0.068, 0.0859999999999
0.084, 0.078
0.083, 0.078
0.082, 0.109
0.11, 0.0990000000001
0.096, 0.115
0.081, 0.092
0.087, 0.072
0.13, 0.092
0.141, 0.073
0.135, 0.0789999999999
0.127, 0.118
0.073, 0.074
0.147, 0.088
0.096, 0.0929999999999
0.083, 0.071
0.074, 0.0990000000001
0.098, 0.125
0.103, 0.1
0.095, 0.096
0.156, 0.182
0.094, 0.114
0.106, 0.1
0.082, 0.101
0.086, 0.114
0.095, 0.0920000000001
0.075, 0.096
0.077, 0.0830000000001
0.099, 0.108
0.1, 0.112
0.077, 0.077
0.081, 0.075
0.072, 0.112
0.069, 0.0929999999999
0.078, 0.08
0.071, 0.128
0.084, 0.098
0.083, 0.106
0.076, 0.112
0.097, 0.103
0.097, 0.093
0.098, 0.11
0.132, 0.108
0.106, 0.101
0.096, 0.078
0.128, 0.0790000000001
0.161, 0.101
0.124, 0.078
0.091, 0.073
0.102, 0.204
0.071, 0.114
0.084, 0.095
0.112, 0.127
0.12, 0.0760000000001
0.082, 0.084
0.094, 0.09
0.091, 0.12
0.087, 0.112
0.091, 0.13
0.121, 0.11
0.099, 0.187
0.097, 0.113
0.114, 0.125
0.135, 0.264
0.09, 0.154
0.093, 0.082
0.079, 0.101
0.076, 0.134
0.075, 0.148
0.114, 0.122
0.103, 0.104
0.132, 0.088
0.081, 0.0899999999999
0.104, 0.142
0.108, 0.116
0.123, 0.124
0.082, 0.0790000000001
0.071, 0.0760000000001
0.101, 0.106
0.1, 0.09
0.074, 0.0840000000001
0.133, 0.105
0.087, 0.089
0.075, 0.104
0.076, 0.0690000000001
0.11, 0.092
0.083, 0.093
0.079, 0.097
0.078, 0.0939999999999
0.081, 0.077
0.069, 0.071
0.07, 0.071
0.1, 0.104
0.129, 0.1
0.135, 0.086
0.073, 0.073
0.084, 0.0939999999999
0.109, 0.159
0.141, 0.148
0.108, 0.1
0.077, 0.07
0.076, 0.294
0.159, 0.1
0.091, 0.0699999999999
0.096, 0.105
0.085, 0.102
0.148, 0.121
0.079, 0.0699999999999
0.114, 0.073
0.083, 0.093
0.078, 0.157
0.089, 0.0979999999999
0.12, 0.092
0.1, 0.131
0.106, 0.0749999999999
0.108, 0.089
0.1, 0.0910000000001
0.077, 0.069
0.075, 0.085
0.088, 0.112
0.107, 0.106
0.08, 0.092
0.131, 0.116
0.072, 0.0910000000001
0.135, 0.152
0.093, 0.0790000000001
0.104, 0.101
0.134, 0.112
