Sending, 1000, search, requests, to, 192.168.1.3
0.199, 0.096
0.114, 0.0869999999999
0.085, 0.067
0.072, 0.075
0.122, 0.099
0.107, 0.089
0.085, 0.08
0.291, 0.079
0.105, 0.089
0.119, 0.094
0.108, 0.097
0.113, 0.097
0.082, 0.085
0.088, 0.072
0.129, 0.104
0.111, 0.156
0.118, 0.098
0.143, 0.105
0.138, 0.096
0.102, 0.113
0.115, 0.074
0.11, 0.069
0.116, 0.108
0.092, 0.089
0.093, 0.069
0.111, 0.077
0.093, 0.067
0.127, 0.082
0.124, 0.098
0.098, 0.065
0.114, 0.112
0.103, 0.092
0.105, 0.082
0.113, 0.073
0.114, 0.123
0.123, 0.094
0.119, 0.093
0.124, 0.086
0.101, 0.069
0.115, 0.066
0.12, 0.096
0.1, 0.071
0.121, 0.099
0.157, 0.113
0.122, 0.096
0.123, 0.094
0.108, 0.093
0.141, 0.072
0.1, 0.068
0.104, 0.066
0.079, 0.067
0.108, 0.096
0.095, 0.095
0.102, 0.082
0.129, 0.067
0.095, 0.069
0.126, 0.069
0.129, 0.111
0.085, 0.071
0.091, 0.065
0.092, 0.083
0.116, 0.087
0.101, 0.076
0.105, 0.113
0.131, 0.081
0.125, 0.101
0.112, 0.107
0.08, 0.081
0.096, 0.084
0.115, 0.1
0.099, 0.075
0.1, 0.083
0.096, 0.083
0.115, 0.075
0.105, 0.1
0.086, 0.073
0.113, 0.092
0.11, 0.102
0.101, 0.074
0.102, 0.127
0.106, 0.13
0.136, 0.097
0.133, 0.068
0.081, 0.067
0.122, 0.077
0.105, 0.103
0.09, 0.071
0.106, 0.078
0.096, 0.101
0.143, 0.103
0.089, 0.073
0.103, 0.099
0.114, 0.071
0.147, 0.099
0.096, 0.128
0.087, 0.069
0.082, 0.069
0.079, 0.064
0.087, 0.07
0.097, 0.092
0.098, 0.069
0.089, 0.07
0.12, 0.084
0.097, 0.12
0.081, 0.07
0.114, 0.098
0.083, 0.07
0.081, 0.071
0.102, 0.096
0.101, 0.119
0.085, 0.066
0.079, 0.078
0.079, 0.07
0.134, 0.102
0.092, 0.102
0.109, 0.084
0.086, 0.073
0.134, 0.076
0.1, 0.1
0.113, 0.097
0.084, 0.072
0.105, 0.078
0.115, 0.099
0.075, 0.07
0.097, 0.099
0.097, 0.102
0.098, 0.096
0.096, 0.095
0.1, 0.108
0.077, 0.097
0.098, 0.096
0.089, 0.085
0.094, 0.099
0.087, 0.073
0.097, 0.112
0.078, 0.113
0.097, 0.089
0.091, 0.112
0.142, 0.088
0.082, 0.093
0.074, 0.08
0.099, 0.104
0.123, 0.13
0.123, 0.094
0.083, 0.071
0.097, 0.07
0.073, 0.074
0.085, 0.108
0.107, 0.084
0.109, 0.075
0.134, 0.101
0.096, 0.114
0.098, 0.091
0.14, 0.102
0.116, 0.121
0.12, 0.092
0.069, 0.07
0.094, 0.1
0.112, 0.152
0.07, 0.081
0.066, 0.076
0.133, 0.103
0.117, 0.097
0.082, 0.116
0.097, 0.096
0.162, 0.081
0.082, 0.179
0.07, 0.071
0.073, 0.126
0.123, 0.218
0.073, 0.071
0.099, 0.123
0.069, 0.082
0.067, 0.071
0.072, 0.074
0.105, 0.096
0.082, 0.073
0.093, 0.115
0.097, 0.1
0.111, 0.091
0.072, 0.072
0.103, 0.091
0.116, 0.069
0.065, 0.066
0.069, 0.078
0.085, 0.081
0.068, 0.109
0.117, 0.119
0.085, 0.115
0.077, 0.07
0.076, 0.066
0.071, 0.068
0.123, 0.115
0.094, 0.098
0.092, 0.105
0.064, 0.071
0.069, 0.073
0.157, 0.069
0.076, 0.065
0.135, 0.098
0.095, 0.099
0.07, 0.072
0.097, 0.126
0.105, 0.098
0.12, 0.118
0.073, 0.097
0.072, 0.073
0.065, 0.07
0.111, 0.067
0.098, 0.093
0.097, 0.126
0.092, 0.098
0.101, 0.093
0.097, 0.096
0.102, 0.127
0.11, 0.079
0.111, 0.11
0.106, 0.103
0.082, 0.078
0.073, 0.085
0.091, 0.093
0.095, 0.128
0.097, 0.095
0.102, 0.099
0.068, 0.091
0.071, 0.073
0.084, 0.07
0.071, 0.072
0.076, 0.105
0.078, 0.089
0.101, 0.102
0.07, 0.116
0.068, 0.072
0.109, 0.074
0.097, 0.148
0.1, 0.104
0.074, 0.091
0.07, 0.087
0.099, 0.069
0.065, 0.073
0.076, 0.068
0.089, 0.096
0.065, 0.07
0.073, 0.07
0.096, 0.093
0.082, 0.081
0.072, 0.071
0.077, 0.09
0.074, 0.076
0.075, 0.07
0.087, 0.121
0.076, 0.089
0.14, 0.094
0.078, 0.09
0.094, 0.108
0.075, 0.072
0.079, 0.071
0.074, 0.081
0.131, 0.132
0.121, 0.073
0.098, 0.091
0.077, 0.073
0.105, 0.121
0.1, 0.097
0.064, 0.102
0.098, 0.105
0.082, 0.078
0.073, 0.079
0.074, 0.081
0.086, 0.201
0.098, 0.099
0.096, 0.076
0.105, 0.071
0.074, 0.101
0.08, 0.08
0.07, 0.086
0.064, 0.077
0.069, 0.079
0.082, 0.117
0.135, 0.1
0.073, 0.073
0.093, 0.088
0.11, 0.103
0.098, 0.072
0.071, 0.077
0.094, 0.064
0.068, 0.064
0.097, 0.087
0.089, 0.119
0.126, 0.075
0.097, 0.093
0.077, 0.086
0.071, 0.139
0.132, 0.102
0.069, 0.069
0.096, 0.096
0.087, 0.094
0.073, 0.066
0.071, 0.113
0.076, 0.086
0.091, 0.077
0.073, 0.066
0.071, 0.078
0.109, 0.08
0.11, 0.083
0.165, 0.093
0.1, 0.072
0.119, 0.097
0.065, 0.071
0.071, 0.103
0.097, 0.11
0.077, 0.072
0.102, 0.108
0.101, 0.097
0.071, 0.0869999999999
0.094, 0.093
0.08, 0.121
0.109, 0.141
0.135, 0.126
0.098, 0.095
0.064, 0.072
0.068, 0.09
0.071, 0.072
0.087, 0.07
0.12, 0.103
0.087, 0.079
0.082, 0.07
0.106, 0.102
0.072, 0.073
0.075, 0.071
0.1, 0.098
0.135, 0.103
0.075, 0.07
0.07, 0.073
0.08, 0.091
0.089, 0.081
0.086, 0.085
0.097, 0.122
0.103, 0.098
0.07, 0.069
0.069, 0.068
0.068, 0.101
0.094, 0.071
0.107, 0.098
0.071, 0.066
0.07, 0.075
0.076, 0.145
0.103, 0.099
0.072, 0.095
0.124, 0.07
0.07, 0.065
0.096, 0.097
0.098, 0.086
0.072, 0.072
0.119, 0.101
0.081, 0.07
0.124, 0.07
0.092, 0.077
0.129, 0.096
0.133, 0.104
0.131, 0.087
0.071, 0.106
0.07, 0.081
0.098, 0.108
0.079, 0.091
0.095, 0.099
0.115, 0.076
0.09, 0.112
0.096, 0.14
0.069, 0.084
0.096, 0.105
0.074, 0.072
0.082, 0.072
0.115, 0.131
0.07, 0.067
0.073, 0.07
0.086, 0.112
0.09, 0.079
0.092, 0.098
0.074, 0.08
0.067, 0.095
0.103, 0.115
0.08, 0.072
0.093, 0.073
0.121, 0.094
0.072, 0.068
0.115, 0.137
0.096, 0.126
0.13, 0.135
0.101, 0.097
0.09, 0.117
0.068, 0.087
0.106, 0.095
0.116, 0.122
0.071, 0.074
0.068, 0.07
0.129, 0.1
0.096, 0.098
0.096, 0.098
0.105, 0.095
0.101, 0.096
0.089, 0.07
0.075, 0.085
0.076, 0.071
0.072, 0.071
0.079, 0.069
0.12, 0.103
0.109, 0.08
0.088, 0.071
0.094, 0.069
0.078, 0.073
0.084, 0.091
0.11, 0.097
0.089, 0.0790000000001
0.076, 0.065
0.071, 0.092
0.094, 0.099
0.063, 0.078
0.096, 0.201
0.1, 0.106
0.079, 0.069
0.096, 0.107
0.103, 0.127
0.118, 0.096
0.069, 0.073
0.072, 0.073
0.078, 0.091
0.094, 0.105
0.141, 0.103
0.077, 0.081
0.114, 0.095
0.069, 0.066
0.094, 0.1
0.104, 0.066
0.077, 0.074
0.073, 0.068
0.1, 0.095
0.083, 0.089
0.103, 0.12
0.109, 0.14
0.07, 0.08
0.092, 0.069
0.075, 0.072
0.11, 0.123
0.093, 0.093
0.097, 0.11
0.079, 0.073
0.12, 0.151
0.097, 0.133
0.095, 0.071
0.102, 0.073
0.182, 0.088
0.084, 0.072
0.101, 0.079
0.117, 0.096
0.113, 0.122
0.079, 0.072
0.079, 0.072
0.104, 0.12
0.083, 0.129
0.082, 0.097
0.1, 0.08
0.083, 0.092
0.135, 0.103
0.072, 0.095
0.096, 0.083
0.108, 0.074
0.079, 0.078
0.076, 0.085
0.092, 0.102
0.094, 0.119
0.094, 0.075
0.096, 0.071
0.092, 0.071
0.101, 0.101
0.07, 0.086
0.069, 0.077
0.074, 0.102
0.123, 0.081
0.081, 0.139
0.071, 0.077
0.161, 0.096
0.075, 0.082
0.106, 0.095
0.079, 0.077
0.084, 0.087
0.071, 0.104
0.07, 0.075
0.133, 0.08
0.083, 0.074
0.131, 0.094
0.093, 0.096
0.075, 0.069
0.079, 0.072
0.071, 0.073
0.094, 0.098
0.092, 0.088
0.068, 0.075
0.089, 0.079
0.156, 0.078
0.087, 0.074
0.096, 0.1
0.079, 0.076
0.071, 0.069
0.068, 0.071
0.071, 0.083
0.086, 0.097
0.143, 0.099
0.097, 0.118
0.08, 0.08
0.08, 0.074
0.105, 0.09
0.091, 0.091
0.098, 0.1
0.065, 0.072
0.119, 0.093
0.082, 0.075
0.092, 0.097
0.098, 0.106
0.077, 0.171
0.097, 0.121
0.11, 0.127
0.106, 0.1
0.074, 0.07
0.07, 0.071
0.111, 0.18
0.089, 0.074
0.097, 0.112
0.127, 0.098
0.113, 0.099
0.087, 0.081
0.101, 0.096
0.097, 0.119
0.071, 0.089
0.095, 0.113
0.095, 0.077
0.091, 0.091
0.069, 0.091
0.121, 0.129
0.094, 0.066
0.094, 0.096
0.108, 0.112
0.074, 0.083
0.124, 0.091
0.093, 0.099
0.096, 0.12
0.074, 0.082
0.068, 0.076
0.095, 0.105
0.08, 0.074
0.088, 0.085
0.115, 0.1
0.101, 0.115
0.14, 0.072
0.098, 0.072
0.072, 0.11
0.099, 0.099
0.077, 0.067
0.105, 0.101
0.112, 0.11
0.071, 0.078
0.084, 0.112
0.071, 0.07
0.072, 0.086
0.089, 0.12
0.077, 0.077
0.072, 0.073
0.087, 0.069
0.096, 0.08
0.092, 0.109
0.071, 0.074
0.114, 0.118
0.087, 0.072
0.126, 0.112
0.115, 0.102
0.127, 0.103
0.098, 0.161
0.085, 0.083
0.131, 0.089
0.074, 0.093
0.071, 0.072
0.117, 0.086
0.096, 0.116
0.099, 0.112
0.146, 0.071
0.097, 0.1
0.1, 0.103
0.093, 0.084
0.098, 0.07
0.073, 0.07
0.1, 0.077
0.099, 0.098
0.099, 0.078
0.072, 0.088
0.073, 0.069
0.106, 0.07
0.099, 0.096
0.074, 0.07
0.132, 0.11
0.104, 0.093
0.145, 0.11
0.086, 0.075
0.093, 0.079
0.091, 0.103
0.096, 0.087
0.078, 0.1
0.137, 0.116
0.138, 0.099
0.078, 0.07
0.077, 0.096
0.1, 0.07
0.076, 0.09
0.106, 0.133
0.137, 0.096
0.102, 0.099
0.124, 0.122
0.076, 0.073
0.081, 0.069
0.131, 0.097
0.085, 0.08
0.073, 0.092
0.091, 0.073
0.115, 0.083
0.117, 0.126
0.072, 0.07
0.125, 0.076
0.102, 0.12
0.07, 0.074
0.075, 0.074
0.108, 0.07
0.094, 0.098
0.074, 0.067
0.093, 0.068
0.123, 0.085
0.105, 0.096
0.072, 0.093
0.075, 0.073
0.081, 0.092
0.092, 0.085
0.073, 0.0939999999999
0.102, 0.0869999999999
0.086, 0.0720000000001
0.122, 0.092
0.091, 0.07
0.074, 0.119
0.082, 0.088
0.101, 0.093
0.107, 0.098
0.092, 0.071
0.08, 0.097
0.164, 0.07
0.098, 0.115
0.095, 0.14
0.133, 0.0709999999999
0.077, 0.072
0.079, 0.065
0.083, 0.0870000000001
0.075, 0.0939999999999
0.098, 0.112
0.135, 0.097
0.109, 0.072
0.101, 0.099
0.1, 0.101
0.101, 0.0899999999999
0.082, 0.074
0.094, 0.077
0.072, 0.085
0.081, 0.126
0.109, 0.073
0.089, 0.158
0.102, 0.11
0.087, 0.145
0.073, 0.089
0.073, 0.0730000000001
0.105, 0.118
0.084, 0.104
0.076, 0.127
0.082, 0.07
0.101, 0.093
0.1, 0.102
0.099, 0.091
0.08, 0.096
0.07, 0.071
0.074, 0.076
0.117, 0.13
0.098, 0.113
0.096, 0.115
0.088, 0.092
0.074, 0.072
0.075, 0.086
0.082, 0.091
0.065, 0.0870000000001
0.089, 0.091
0.093, 0.086
0.103, 0.071
0.109, 0.103
0.07, 0.111
0.093, 0.113
0.096, 0.101
0.106, 0.07
0.07, 0.11
0.1, 0.091
0.104, 0.103
0.113, 0.07
0.089, 0.096
0.126, 0.077
0.084, 0.0950000000001
0.111, 0.118
0.094, 0.119
0.115, 0.117
0.079, 0.075
0.071, 0.07
0.098, 0.0939999999999
0.075, 0.072
0.081, 0.082
0.078, 0.076
0.085, 0.097
0.07, 0.094
0.064, 0.094
0.077, 0.085
0.106, 0.096
0.099, 0.115
0.111, 0.14
0.084, 0.11
0.121, 0.103
0.114, 0.092
0.071, 0.0870000000001
0.071, 0.104
0.07, 0.071
0.106, 0.0690000000001
0.114, 0.1
0.072, 0.074
0.11, 0.115
0.073, 0.0720000000001
0.101, 0.069
0.117, 0.114
0.07, 0.071
0.068, 0.07
0.076, 0.07
0.093, 0.103
0.077, 0.076
0.101, 0.097
0.105, 0.0990000000001
0.095, 0.148
0.132, 0.099
0.071, 0.098
0.101, 0.125
0.072, 0.0869999999999
0.069, 0.065
0.102, 0.122
0.08, 0.074
0.082, 0.068
0.099, 0.0950000000001
0.073, 0.074
0.138, 0.0749999999999
0.078, 0.076
0.076, 0.068
0.072, 0.074
0.088, 0.078
0.11, 0.075
0.111, 0.0990000000001
0.073, 0.07
0.071, 0.08
0.082, 0.089
0.089, 0.085
0.107, 0.088
0.071, 0.074
0.076, 0.0749999999999
0.099, 0.0899999999999
0.097, 0.097
0.072, 0.07
0.065, 0.077
0.071, 0.088
0.126, 0.118
0.081, 0.101
0.083, 0.073
0.097, 0.116
0.085, 0.117
0.082, 0.078
0.086, 0.071
0.098, 0.107
0.07, 0.115
0.127, 0.109
0.093, 0.095
0.089, 0.0819999999999
0.098, 0.102
0.07, 0.071
0.093, 0.0709999999999
0.099, 0.102
0.077, 0.092
0.096, 0.0859999999999
0.072, 0.0680000000001
0.096, 0.108
0.075, 0.07
0.07, 0.1
0.067, 0.069
0.071, 0.077
0.137, 0.103
0.101, 0.0990000000001
0.162, 0.164
0.106, 0.098
0.079, 0.0800000000001
0.096, 0.1
0.104, 0.135
0.071, 0.071
0.083, 0.117
0.097, 0.139
0.076, 0.074
0.071, 0.075
0.077, 0.0870000000001
0.125, 0.092
0.075, 0.084
0.075, 0.184
0.159, 0.124
0.106, 0.092
0.096, 0.073
0.08, 0.086
0.074, 0.076
0.073, 0.074
0.085, 0.0709999999999
0.072, 0.078
0.08, 0.085
0.076, 0.123
0.12, 0.0749999999999
0.072, 0.081
0.09, 0.073
0.073, 0.0699999999999
0.099, 0.133
0.105, 0.106
0.067, 0.08
0.131, 0.131
0.066, 0.071
0.082, 0.0709999999999
0.086, 0.07
0.079, 0.071
0.071, 0.0899999999999
0.071, 0.08
0.092, 0.122
0.073, 0.072
0.077, 0.0870000000001
0.071, 0.092
0.071, 0.106
0.07, 0.069
0.075, 0.0789999999999
0.079, 0.07
0.103, 0.105
0.074, 0.091
0.081, 0.0720000000001
0.106, 0.107
0.093, 0.093
0.136, 0.072
0.084, 0.099
0.069, 0.0749999999999
0.07, 0.075
0.08, 0.0709999999999
0.087, 0.071
0.084, 0.0760000000001
0.096, 0.0869999999999
0.111, 0.0830000000001
0.074, 0.0640000000001
0.077, 0.07
0.085, 0.073
0.071, 0.0790000000001
0.078, 0.082
0.074, 0.077
0.086, 0.07
0.177, 0.065
0.097, 0.103
0.102, 0.137
0.08, 0.0920000000001
0.078, 0.077
0.085, 0.081
0.088, 0.077
0.096, 0.114
0.068, 0.102
0.073, 0.077
0.117, 0.1
0.074, 0.184
0.126, 0.12
0.097, 0.069
0.117, 0.119
0.071, 0.08
0.119, 0.117
0.094, 0.081
0.065, 0.0709999999999
0.067, 0.121
0.104, 0.089
0.074, 0.0690000000001
0.107, 0.0830000000001
0.07, 0.074
0.07, 0.0830000000001
0.118, 0.086
0.094, 0.099
0.101, 0.131
0.1, 0.105
0.136, 0.112
0.07, 0.0709999999999
0.125, 0.124
0.08, 0.07
0.085, 0.073
0.098, 0.102
0.101, 0.113
0.095, 0.121
0.078, 0.07
0.078, 0.088
0.071, 0.082
0.076, 0.098
0.067, 0.108
0.106, 0.0990000000001
0.09, 0.0709999999999
0.078, 0.0969999999999
0.106, 0.0939999999999
0.072, 0.0709999999999
0.113, 0.142
0.13, 0.128
0.102, 0.095
0.071, 0.082
0.077, 0.0829999999999
0.121, 0.09
0.096, 0.074
0.083, 0.0830000000001
0.066, 0.0709999999999
0.072, 0.0789999999999
0.097, 0.119
0.114, 0.099
0.124, 0.073
0.074, 0.0869999999999
0.085, 0.069
0.151, 0.0830000000001
0.074, 0.088
0.093, 0.075
0.102, 0.095
0.097, 0.107
0.097, 0.108
0.092, 0.085
0.113, 0.091
0.112, 0.13
0.092, 0.081
0.074, 0.065
0.097, 0.069
0.102, 0.096
0.113, 0.095
0.119, 0.081
0.075, 0.071
0.07, 0.076
0.094, 0.093
0.072, 0.0950000000001
0.072, 0.077
0.099, 0.203
0.072, 0.085
0.105, 0.07
0.071, 0.084
0.077, 0.082
0.091, 0.09
0.09, 0.0869999999999
0.078, 0.077
0.07, 0.066
0.099, 0.094
0.069, 0.067
0.071, 0.076
0.07, 0.0790000000001
0.108, 0.131
0.076, 0.066
0.083, 0.094
0.145, 0.114
0.107, 0.132
0.086, 0.065
0.078, 0.068
0.102, 0.089
0.099, 0.119
0.13, 0.092
0.088, 0.116
0.076, 0.071
0.105, 0.108
0.071, 0.078
0.065, 0.0739999999999
0.104, 0.102
0.084, 0.113
0.087, 0.131
0.073, 0.082
0.082, 0.106
0.078, 0.0939999999999
0.131, 0.1
0.127, 0.119
0.101, 0.085
0.093, 0.094
0.081, 0.111
0.116, 0.0840000000001
0.131, 0.094
0.093, 0.112
0.069, 0.0650000000001
0.099, 0.071
0.113, 0.135
0.1, 0.098
0.105, 0.102
0.07, 0.0749999999999
0.137, 0.104
0.075, 0.071
0.09, 0.097
0.087, 0.182
