Sending, 1000, search, requests, to, 192.168.1.3
0.141, 0.061
0.095, 0.104
0.081, 0.077
0.107, 0.073
0.098, 0.077
0.095, 0.088
0.08, 0.086
0.075, 0.088
0.077, 0.102
0.097, 0.114
0.086, 0.082
0.101, 0.081
0.08, 0.068
0.094, 0.081
0.079, 0.072
0.074, 0.071
0.098, 0.08
0.106, 0.097
0.099, 0.089
0.122, 0.077
0.08, 0.077
0.118, 0.081
0.097, 0.091
0.207, 0.076
0.105, 0.0810000000001
0.101, 0.091
0.095, 0.071
0.101, 0.102
0.123, 0.079
0.11, 0.082
0.09, 0.086
0.106, 0.079
0.083, 0.075
0.106, 0.075
0.084, 0.071
0.13, 0.093
0.095, 0.071
0.088, 0.083
0.106, 0.078
0.101, 0.071
0.105, 0.086
0.13, 0.079
0.103, 0.089
0.113, 0.086
0.15, 0.083
0.098, 0.081
0.088, 0.073
0.084, 0.101
0.114, 0.11
0.098, 0.075
0.114, 0.068
0.104, 0.08
0.101, 0.101
0.086, 0.067
0.077, 0.072
0.073, 0.074
0.098, 0.146
0.097, 0.097
0.111, 0.128
0.092, 0.082
0.128, 0.075
0.108, 0.115
0.096, 0.095
0.12, 0.095
0.077, 0.074
0.088, 0.094
0.105, 0.078
0.128, 0.091
0.081, 0.073
0.117, 0.085
0.092, 0.074
0.094, 0.075
0.081, 0.081
0.121, 0.091
0.114, 0.128
0.097, 0.084
0.085, 0.069
0.082, 0.067
0.083, 0.071
0.096, 0.087
0.095, 0.11
0.106, 0.087
0.095, 0.074
0.093, 0.07
0.09, 0.116
0.089, 0.086
0.094, 0.079
0.079, 0.091
0.104, 0.071
0.126, 0.082
0.104, 0.076
0.128, 0.088
0.075, 0.072
0.142, 0.074
0.096, 0.076
0.111, 0.073
0.114, 0.078
0.071, 0.066
0.099, 0.081
0.098, 0.088
0.103, 0.118
0.082, 0.072
0.095, 0.072
0.098, 0.113
0.073, 0.073
0.1, 0.079
0.105, 0.121
0.102, 0.105
0.092, 0.116
0.09, 0.094
0.087, 0.082
0.105, 0.075
0.095, 0.091
0.068, 0.072
0.076, 0.074
0.112, 0.093
0.094, 0.094
0.07, 0.11
0.092, 0.081
0.119, 0.079
0.071, 0.067
0.073, 0.067
0.102, 0.078
0.091, 0.094
0.074, 0.072
0.122, 0.084
0.089, 0.104
0.081, 0.081
0.084, 0.073
0.085, 0.077
0.11, 0.08
0.073, 0.069
0.079, 0.108
0.068, 0.078
0.09, 0.088
0.102, 0.083
0.096, 0.079
0.082, 0.073
0.085, 0.087
0.07, 0.066
0.091, 0.071
0.074, 0.071
0.077, 0.078
0.081, 0.066
0.077, 0.085
0.093, 0.094
0.09, 0.074
0.075, 0.077
0.112, 0.097
0.09, 0.081
0.084, 0.083
0.081, 0.081
0.127, 0.081
0.121, 0.076
0.104, 0.081
0.09, 0.094
0.084, 0.094
0.077, 0.117
0.084, 0.14
0.076, 0.112
0.123, 0.089
0.099, 0.112
0.085, 0.093
0.098, 0.072
0.076, 0.088
0.085, 0.081
0.097, 0.119
0.098, 0.125
0.074, 0.072
0.076, 0.076
0.102, 0.087
0.093, 0.078
0.074, 0.071
0.075, 0.081
0.079, 0.067
0.08, 0.086
0.072, 0.094
0.078, 0.077
0.077, 0.08
0.082, 0.081
0.07, 0.072
0.08, 0.094
0.11, 0.103
0.082, 0.077
0.095, 0.088
0.071, 0.074
0.086, 0.074
0.08, 0.08
0.075, 0.081
0.072, 0.069
0.074, 0.096
0.069, 0.094
0.076, 0.077
0.074, 0.0869999999999
0.104, 0.072
0.073, 0.079
0.071, 0.1
0.086, 0.087
0.089, 0.072
0.076, 0.084
0.113, 0.085
0.088, 0.079
0.143, 0.076
0.131, 0.08
0.1, 0.08
0.087, 0.082
0.095, 0.088
0.078, 0.19
0.075, 0.1
0.088, 0.099
0.078, 0.091
0.079, 0.091
0.082, 0.073
0.075, 0.078
0.095, 0.089
0.072, 0.074
0.09, 0.087
0.097, 0.09
0.08, 0.078
0.076, 0.071
0.066, 0.086
0.088, 0.086
0.081, 0.078
0.109, 0.1
0.081, 0.09
0.073, 0.07
0.069, 0.085
0.086, 0.086
0.07, 0.083
0.094, 0.089
0.112, 0.097
0.073, 0.076
0.092, 0.098
0.089, 0.08
0.081, 0.101
0.072, 0.11
0.082, 0.08
0.076, 0.08
0.086, 0.101
0.081, 0.093
0.071, 0.068
0.136, 0.086
0.066, 0.071
0.086, 0.083
0.081, 0.082
0.076, 0.076
0.109, 0.075
0.074, 0.093
0.075, 0.075
0.078, 0.079
0.081, 0.091
0.08, 0.072
0.089, 0.088
0.16, 0.109
0.13, 0.08
0.096, 0.084
0.072, 0.073
0.069, 0.105
0.093, 0.127
0.084, 0.101
0.097, 0.111
0.082, 0.086
0.08, 0.086
0.076, 0.081
0.089, 0.084
0.113, 0.118
0.118, 0.087
0.1, 0.071
0.072, 0.067
0.082, 0.095
0.09, 0.077
0.075, 0.077
0.072, 0.074
0.114, 0.08
0.083, 0.099
0.077, 0.124
0.076, 0.09
0.071, 0.072
0.088, 0.102
0.075, 0.072
0.075, 0.076
0.069, 0.076
0.078, 0.082
0.121, 0.095
0.07, 0.072
0.079, 0.0810000000001
0.07, 0.072
0.067, 0.067
0.072, 0.073
0.102, 0.095
0.087, 0.084
0.084, 0.108
0.072, 0.071
0.077, 0.078
0.075, 0.078
0.086, 0.082
0.067, 0.071
0.067, 0.071
0.065, 0.078
0.086, 0.082
0.072, 0.073
0.1, 0.068
0.079, 0.071
0.111, 0.081
0.101, 0.081
0.099, 0.077
0.088, 0.103
0.103, 0.095
0.077, 0.181
0.074, 0.119
0.079, 0.097
0.073, 0.088
0.119, 0.093
0.083, 0.108
0.114, 0.099
0.101, 0.073
0.067, 0.07
0.084, 0.066
0.072, 0.077
0.111, 0.1
0.081, 0.089
0.074, 0.101
0.072, 0.078
0.072, 0.071
0.112, 0.077
0.083, 0.081
0.096, 0.133
0.077, 0.097
0.084, 0.085
0.071, 0.082
0.087, 0.105
0.099, 0.071
0.075, 0.078
0.081, 0.084
0.072, 0.096
0.08, 0.085
0.099, 0.098
0.1, 0.095
0.08, 0.108
0.127, 0.085
0.101, 0.096
0.073, 0.075
0.072, 0.072
0.085, 0.075
0.074, 0.093
0.085, 0.091
0.083, 0.086
0.086, 0.077
0.074, 0.076
0.099, 0.088
0.069, 0.073
0.109, 0.072
0.074, 0.068
0.072, 0.077
0.109, 0.076
0.082, 0.07
0.103, 0.081
0.083, 0.078
0.1, 0.114
0.09, 0.089
0.079, 0.094
0.086, 0.074
0.071, 0.082
0.088, 0.111
0.092, 0.086
0.09, 0.104
0.073, 0.089
0.073, 0.075
0.096, 0.104
0.083, 0.082
0.088, 0.1
0.105, 0.092
0.078, 0.073
0.081, 0.085
0.085, 0.08
0.088, 0.097
0.073, 0.086
0.074, 0.073
0.075, 0.079
0.084, 0.068
0.096, 0.073
0.082, 0.079
0.071, 0.075
0.067, 0.068
0.077, 0.084
0.07, 0.071
0.072, 0.075
0.07, 0.069
0.077, 0.077
0.089, 0.076
0.078, 0.073
0.089, 0.12
0.076, 0.081
0.086, 0.076
0.093, 0.088
0.098, 0.071
0.076, 0.086
0.097, 0.088
0.092, 0.084
0.076, 0.123
0.115, 0.096
0.084, 0.093
0.103, 0.093
0.071, 0.071
0.086, 0.072
0.091, 0.067
0.104, 0.071
0.083, 0.081
0.096, 0.1
0.119, 0.106
0.085, 0.087
0.09, 0.079
0.081, 0.083
0.093, 0.08
0.079, 0.0790000000001
0.073, 0.071
0.073, 0.08
0.105, 0.074
0.124, 0.104
0.083, 0.0869999999999
0.1, 0.072
0.084, 0.083
0.078, 0.091
0.099, 0.093
0.07, 0.071
0.07, 0.085
0.084, 0.091
0.067, 0.122
0.091, 0.084
0.08, 0.077
0.067, 0.078
0.093, 0.094
0.113, 0.116
0.074, 0.065
0.071, 0.07
0.069, 0.068
0.077, 0.08
0.075, 0.069
0.08, 0.077
0.104, 0.075
0.107, 0.082
0.085, 0.086
0.08, 0.088
0.083, 0.097
0.079, 0.076
0.085, 0.076
0.094, 0.082
0.088, 0.087
0.068, 0.077
0.078, 0.083
0.068, 0.075
0.161, 0.084
0.097, 0.08
0.194, 0.09
0.112, 0.09
0.087, 0.073
0.089, 0.094
0.076, 0.102
0.08, 0.099
0.077, 0.13
0.074, 0.078
0.085, 0.103
0.106, 0.089
0.08, 0.094
0.074, 0.082
0.067, 0.072
0.068, 0.072
0.066, 0.069
0.075, 0.08
0.07, 0.099
0.145, 0.097
0.075, 0.085
0.068, 0.081
0.101, 0.072
0.073, 0.081
0.093, 0.103
0.094, 0.106
0.082, 0.09
0.078, 0.071
0.067, 0.082
0.1, 0.085
0.091, 0.086
0.068, 0.074
0.091, 0.099
0.078, 0.106
0.089, 0.085
0.079, 0.086
0.073, 0.07
0.075, 0.073
0.077, 0.076
0.094, 0.075
0.084, 0.075
0.067, 0.072
0.096, 0.068
0.108, 0.076
0.071, 0.077
0.09, 0.079
0.07, 0.073
0.072, 0.073
0.069, 0.076
0.073, 0.07
0.098, 0.079
0.076, 0.074
0.096, 0.1
0.107, 0.078
0.122, 0.079
0.079, 0.073
0.118, 0.115
0.089, 0.096
0.088, 0.144
0.078, 0.106
0.083, 0.096
0.116, 0.086
0.079, 0.101
0.077, 0.085
0.074, 0.086
0.099, 0.0790000000001
0.078, 0.073
0.106, 0.073
0.067, 0.072
0.075, 0.093
0.085, 0.087
0.074, 0.098
0.067, 0.067
0.08, 0.087
0.082, 0.097
0.071, 0.067
0.075, 0.093
0.069, 0.113
0.086, 0.076
0.081, 0.097
0.089, 0.082
0.084, 0.107
0.076, 0.078
0.138, 0.085
0.123, 0.078
0.083, 0.097
0.067, 0.07
0.078, 0.089
0.077, 0.097
0.1, 0.091
0.085, 0.084
0.071, 0.08
0.076, 0.07
0.083, 0.09
0.11, 0.082
0.081, 0.083
0.075, 0.085
0.084, 0.102
0.08, 0.072
0.073, 0.111
0.087, 0.087
0.079, 0.08
0.087, 0.092
0.082, 0.072
0.105, 0.079
0.11, 0.076
0.069, 0.089
0.109, 0.104
0.095, 0.097
0.099, 0.088
0.076, 0.096
0.071, 0.08
0.131, 0.101
0.088, 0.075
0.101, 0.073
0.082, 0.074
0.085, 0.09
0.07, 0.074
0.07, 0.074
0.084, 0.111
0.08, 0.11
0.071, 0.072
0.071, 0.07
0.076, 0.071
0.081, 0.088
0.082, 0.101
0.079, 0.072
0.107, 0.067
0.068, 0.072
0.073, 0.099
0.096, 0.09
0.084, 0.103
0.09, 0.077
0.071, 0.072
0.089, 0.104
0.09, 0.093
0.079, 0.074
0.103, 0.085
0.072, 0.065
0.113, 0.075
0.092, 0.085
0.072, 0.076
0.086, 0.08
0.073, 0.073
0.075, 0.069
0.091, 0.1
0.071, 0.071
0.098, 0.091
0.123, 0.078
0.125, 0.083
0.081, 0.107
0.073, 0.074
0.079, 0.07
0.07, 0.067
0.076, 0.071
0.114, 0.09
0.09, 0.092
0.113, 0.09
0.071, 0.072
0.071, 0.098
0.097, 0.13
0.086, 0.105
0.089, 0.084
0.075, 0.087
0.08, 0.075
0.068, 0.07
0.086, 0.09
0.071, 0.092
0.076, 0.08
0.092, 0.082
0.076, 0.071
0.067, 0.066
0.078, 0.077
0.117, 0.0790000000001
0.102, 0.107
0.089, 0.088
0.084, 0.084
0.088, 0.101
0.077, 0.099
0.083, 0.099
0.084, 0.086
0.081, 0.078
0.089, 0.103
0.092, 0.09
0.07, 0.07
0.081, 0.102
0.071, 0.075
0.081, 0.09
0.103, 0.087
0.085, 0.101
0.068, 0.072
0.082, 0.093
0.073, 0.108
0.086, 0.081
0.072, 0.072
0.102, 0.075
0.08, 0.075
0.082, 0.089
0.087, 0.09
0.099, 0.086
0.098, 0.08
0.09, 0.097
0.082, 0.072
0.074, 0.069
0.188, 0.124
0.077, 0.083
0.076, 0.066
0.072, 0.073
0.092, 0.124
0.097, 0.121
0.086, 0.088
0.093, 0.094
0.08, 0.074
0.072, 0.064
0.076, 0.072
0.072, 0.078
0.093, 0.111
0.107, 0.074
0.091, 0.116
0.085, 0.076
0.091, 0.098
0.087, 0.094
0.068, 0.076
0.092, 0.067
0.07, 0.071
0.072, 0.068
0.071, 0.097
0.088, 0.093
0.078, 0.095
0.073, 0.092
0.066, 0.065
0.072, 0.082
0.091, 0.077
0.096, 0.085
0.082, 0.101
0.076, 0.069
0.073, 0.078
0.082, 0.08
0.078, 0.077
0.067, 0.102
0.077, 0.096
0.11, 0.082
0.073, 0.074
0.071, 0.103
0.077, 0.083
0.079, 0.099
0.074, 0.071
0.087, 0.105
0.068, 0.072
0.075, 0.07
0.09, 0.099
0.092, 0.096
0.077, 0.07
0.167, 0.082
0.075, 0.077
0.078, 0.075
0.08, 0.076
0.075, 0.083
0.085, 0.097
0.072, 0.087
0.068, 0.081
0.092, 0.098
0.068, 0.071
0.096, 0.082
0.096, 0.103
0.07, 0.073
0.068, 0.068
0.092, 0.08
0.071, 0.071
0.098, 0.115
0.077, 0.093
0.082, 0.075
0.077, 0.072
0.105, 0.074
0.078, 0.125
0.07, 0.081
0.095, 0.067
0.07, 0.07
0.075, 0.089
0.073, 0.096
0.068, 0.073
0.084, 0.125
0.084, 0.085
0.08, 0.087
0.09, 0.091
0.097, 0.083
0.09, 0.078
0.089, 0.077
0.072, 0.086
0.09, 0.095
0.075, 0.084
0.077, 0.087
0.094, 0.067
0.119, 0.079
0.078, 0.088
0.098, 0.094
0.109, 0.099
0.082, 0.093
0.075, 0.083
0.073, 0.081
0.087, 0.076
0.092, 0.081
0.069, 0.067
0.106, 0.069
0.167, 0.09
0.07, 0.084
0.091, 0.069
0.094, 0.078
0.073, 0.103
0.087, 0.118
0.073, 0.093
0.129, 0.1
0.082, 0.069
0.074, 0.077
0.079, 0.0790000000001
0.085, 0.085
0.067, 0.066
0.101, 0.088
0.127, 0.09
0.085, 0.088
0.091, 0.093
0.068, 0.069
0.097, 0.082
0.097, 0.0840000000001
0.074, 0.073
0.073, 0.0889999999999
0.065, 0.0669999999999
0.078, 0.084
0.095, 0.078
0.074, 0.0829999999999
0.072, 0.068
0.078, 0.088
0.084, 0.086
0.09, 0.099
0.083, 0.0829999999999
0.088, 0.08
0.074, 0.073
0.092, 0.123
0.068, 0.0680000000001
0.119, 0.09
0.081, 0.078
0.088, 0.089
0.116, 0.089
0.099, 0.084
0.105, 0.082
0.08, 0.077
0.081, 0.084
0.088, 0.0910000000001
0.073, 0.078
0.091, 0.0790000000001
0.082, 0.112
0.085, 0.1
0.08, 0.0869999999999
0.086, 0.0859999999999
0.07, 0.1
0.103, 0.0840000000001
0.099, 0.078
0.086, 0.081
0.073, 0.074
0.101, 0.158
0.091, 0.09
0.071, 0.09
0.099, 0.071
0.074, 0.0680000000001
0.068, 0.068
0.071, 0.074
0.078, 0.0829999999999
0.09, 0.096
0.098, 0.088
0.08, 0.086
0.067, 0.0709999999999
0.071, 0.112
0.085, 0.074
0.086, 0.101
0.086, 0.084
0.087, 0.072
0.108, 0.081
0.079, 0.075
0.079, 0.076
0.084, 0.08
0.101, 0.086
0.066, 0.07
0.098, 0.106
0.079, 0.0749999999999
0.081, 0.072
0.119, 0.0709999999999
0.089, 0.085
0.071, 0.0870000000001
0.083, 0.0779999999999
0.07, 0.0869999999999
0.07, 0.071
0.105, 0.085
0.093, 0.075
0.071, 0.0680000000001
0.081, 0.085
0.065, 0.115
0.12, 0.0709999999999
0.078, 0.075
0.087, 0.0910000000001
0.081, 0.068
0.074, 0.07
0.099, 0.081
0.078, 0.141
0.078, 0.0699999999999
0.066, 0.0730000000001
0.079, 0.075
0.101, 0.085
0.138, 0.071
0.075, 0.073
0.101, 0.111
0.067, 0.107
0.086, 0.114
0.074, 0.073
0.07, 0.0869999999999
0.074, 0.072
0.092, 0.101
0.081, 0.117
0.086, 0.094
0.073, 0.07
0.071, 0.075
0.098, 0.074
0.1, 0.12
0.073, 0.074
0.066, 0.07
0.075, 0.0830000000001
0.085, 0.072
0.071, 0.071
0.09, 0.099
0.074, 0.102
0.122, 0.0789999999999
0.084, 0.081
0.099, 0.081
0.076, 0.0869999999999
0.071, 0.071
0.068, 0.0720000000001
0.084, 0.071
0.067, 0.073
0.073, 0.065
0.104, 0.108
0.079, 0.0870000000001
0.104, 0.088
0.072, 0.113
0.08, 0.081
0.072, 0.116
0.074, 0.0720000000001
0.075, 0.081
0.078, 0.108
0.077, 0.078
0.085, 0.08
0.078, 0.088
0.116, 0.095
0.083, 0.0790000000001
0.12, 0.107
0.107, 0.112
0.108, 0.0779999999999
0.105, 0.099
0.086, 0.1
0.134, 0.086
0.08, 0.089
0.071, 0.0739999999999
0.076, 0.085
0.111, 0.113
0.072, 0.0680000000001
0.073, 0.074
0.088, 0.096
0.083, 0.119
0.08, 0.125
0.093, 0.082
0.084, 0.101
0.071, 0.09
0.098, 0.086
0.101, 0.0869999999999
0.076, 0.123
0.082, 0.084
0.082, 0.085
0.073, 0.0600000000001
0.08, 0.077
0.078, 0.081
0.073, 0.0680000000001
0.104, 0.08
0.085, 0.097
0.086, 0.0979999999999
0.098, 0.091
0.067, 0.105
0.096, 0.112
0.079, 0.0950000000001
0.067, 0.066
0.077, 0.08
0.089, 0.067
0.099, 0.081
0.07, 0.069
0.102, 0.0869999999999
0.098, 0.077
0.089, 0.085
0.097, 0.138
0.069, 0.073
0.07, 0.069
0.082, 0.08
0.079, 0.0659999999999
0.073, 0.106
0.137, 0.101
0.112, 0.068
0.085, 0.097
0.099, 0.0709999999999
0.107, 0.104
0.103, 0.076
0.095, 0.096
0.104, 0.0690000000001
0.088, 0.114
0.141, 0.101
0.087, 0.118
0.081, 0.095
0.084, 0.098
0.071, 0.07
0.091, 0.0870000000001
0.083, 0.0789999999999
0.077, 0.091
0.079, 0.101
0.115, 0.092
0.117, 0.09
0.092, 0.0829999999999
0.08, 0.085
0.105, 0.0990000000001
0.07, 0.067
0.077, 0.0760000000001
0.104, 0.072
0.135, 0.088
0.123, 0.0869999999999
0.084, 0.067
0.072, 0.068
0.086, 0.081
0.08, 0.0829999999999
0.11, 0.0790000000001
0.093, 0.074
0.084, 0.112
0.074, 0.07
0.076, 0.0830000000001
0.084, 0.081
0.086, 0.0789999999999
0.082, 0.115
0.072, 0.084
0.076, 0.072
0.07, 0.0969999999999
0.074, 0.066
0.083, 0.085
0.091, 0.09
0.085, 0.084
0.074, 0.0789999999999
0.074, 0.076
