Sending, 1000, search, requests, to, 192.168.1.2
0.106, 0.073
0.112, 0.11
0.104, 0.073
0.108, 0.104
0.139, 0.131
0.108, 0.106
0.105, 0.098
0.114, 0.095
0.115, 0.068
0.116, 0.095
0.087, 0.073
0.106, 0.12
0.127, 0.097
0.115, 0.073
0.078, 0.07
0.087, 0.066
0.105, 0.098
0.103, 0.094
0.128, 0.102
0.083, 0.125
0.121, 0.12
0.095, 0.095
0.102, 0.131
0.076, 0.071
0.097, 0.097
0.079, 0.066
0.11, 0.114
0.091, 0.077
0.102, 0.096
0.098, 0.119
0.104, 0.094
0.1, 0.094
0.093, 0.097
0.112, 0.082
0.074, 0.069
0.097, 0.113
0.089, 0.069
0.065, 0.066
0.099, 0.1
0.09, 0.072
0.07, 0.073
0.118, 0.097
0.1, 0.102
0.104, 0.097
0.108, 0.103
0.07, 0.067
0.092, 0.068
0.093, 0.098
0.107, 0.1
0.119, 0.102
0.079, 0.073
0.12, 0.089
0.114, 0.094
0.077, 0.078
0.109, 0.095
0.099, 0.103
0.12, 0.102
0.09, 0.129
0.145, 0.099
0.101, 0.099
0.081, 0.073
0.121, 0.119
0.091, 0.099
0.1, 0.123
0.075, 0.069
0.105, 0.105
0.098, 0.092
0.094, 0.1
0.074, 0.071
0.114, 0.108
0.07, 0.103
0.074, 0.073
0.095, 0.083
0.098, 0.127
0.1, 0.094
0.1, 0.094
0.073, 0.08
0.09, 0.072
0.086, 0.07
0.092, 0.082
0.08, 0.081
0.095, 0.095
0.097, 0.105
0.098, 0.095
0.083, 0.116
0.119, 0.101
0.094, 0.122
0.101, 0.076
0.072, 0.095
0.101, 0.129
0.106, 0.104
0.093, 0.097
0.106, 0.093
0.106, 0.094
0.128, 0.101
0.093, 0.096
0.112, 0.108
0.106, 0.119
0.105, 0.098
0.098, 0.13
0.103, 0.096
0.075, 0.082
0.099, 0.078
0.102, 0.094
0.092, 0.098
0.067, 0.078
0.116, 0.109
0.129, 0.096
0.111, 0.096
0.096, 0.097
0.1, 0.097
0.129, 0.12
0.094, 0.094
0.071, 0.071
0.075, 0.069
0.072, 0.093
0.108, 0.099
0.073, 0.079
0.095, 0.091
0.095, 0.094
0.092, 0.128
0.094, 0.118
0.092, 0.146
0.109, 0.096
0.096, 0.073
0.089, 0.098
0.09, 0.085
0.105, 0.095
0.114, 0.073
0.106, 0.109
0.098, 0.097
0.072, 0.072
0.092, 0.118
0.068, 0.074
0.106, 0.122
0.096, 0.097
0.094, 0.099
0.073, 0.078
0.127, 0.107
0.071, 0.07
0.075, 0.084
0.069, 0.074
0.134, 0.094
0.073, 0.095
0.093, 0.097
0.099, 0.119
0.092, 0.142
0.078, 0.094
0.121, 0.117
0.098, 0.115
0.099, 0.102
0.081, 0.108
0.132, 0.102
0.121, 0.098
0.118, 0.118
0.109, 0.099
0.1, 0.105
0.094, 0.102
0.1, 0.099
0.125, 0.098
0.072, 0.077
0.092, 0.093
0.097, 0.111
0.067, 0.078
0.091, 0.1
0.112, 0.141
0.108, 0.099
0.14, 0.107
0.09, 0.073
0.096, 0.094
0.1, 0.099
0.097, 0.091
0.076, 0.069
0.124, 0.117
0.07, 0.074
0.09, 0.1
0.125, 0.095
0.098, 0.099
0.094, 0.113
0.099, 0.096
0.071, 0.068
0.092, 0.099
0.104, 0.121
0.08, 0.084
0.082, 0.076
0.068, 0.072
0.1, 0.12
0.079, 0.0810000000001
0.097, 0.112
0.074, 0.075
0.097, 0.101
0.097, 0.093
0.108, 0.115
0.093, 0.092
0.099, 0.105
0.106, 0.096
0.108, 0.098
0.112, 0.134
0.076, 0.113
0.115, 0.127
0.131, 0.098
0.097, 0.098
0.103, 0.103
0.094, 0.099
0.096, 0.094
0.099, 0.097
0.098, 0.102
0.096, 0.097
0.075, 0.07
0.113, 0.093
0.1, 0.09
0.109, 0.093
0.148, 0.134
0.104, 0.095
0.098, 0.101
0.105, 0.095
0.094, 0.126
0.096, 0.097
0.097, 0.096
0.077, 0.09
0.074, 0.072
0.097, 0.123
0.126, 0.093
0.096, 0.101
0.15, 0.085
0.086, 0.071
0.075, 0.095
0.126, 0.098
0.076, 0.079
0.108, 0.125
0.105, 0.1
0.066, 0.073
0.093, 0.099
0.107, 0.096
0.121, 0.139
0.108, 0.107
0.097, 0.133
0.094, 0.097
0.097, 0.094
0.145, 0.093
0.071, 0.081
0.116, 0.119
0.141, 0.095
0.094, 0.11
0.126, 0.089
0.142, 0.095
0.103, 0.093
0.07, 0.097
0.077, 0.14
0.073, 0.112
0.105, 0.101
0.071, 0.093
0.104, 0.091
0.111, 0.096
0.079, 0.078
0.097, 0.095
0.074, 0.068
0.071, 0.079
0.098, 0.098
0.099, 0.138
0.096, 0.106
0.097, 0.116
0.133, 0.105
0.113, 0.101
0.133, 0.1
0.092, 0.099
0.094, 0.096
0.139, 0.129
0.072, 0.087
0.092, 0.124
0.094, 0.104
0.068, 0.074
0.066, 0.102
0.093, 0.104
0.121, 0.142
0.068, 0.078
0.107, 0.094
0.068, 0.067
0.099, 0.103
0.102, 0.095
0.095, 0.09
0.072, 0.068
0.091, 0.092
0.097, 0.104
0.093, 0.132
0.096, 0.092
0.103, 0.104
0.067, 0.07
0.074, 0.097
0.137, 0.097
0.113, 0.1
0.131, 0.093
0.101, 0.107
0.091, 0.11
0.099, 0.097
0.095, 0.096
0.073, 0.073
0.103, 0.073
0.073, 0.078
0.098, 0.093
0.076, 0.074
0.121, 0.099
0.078, 0.079
0.121, 0.081
0.123, 0.1
0.098, 0.098
0.111, 0.097
0.102, 0.106
0.096, 0.097
0.077, 0.07
0.086, 0.074
0.07, 0.073
0.094, 0.127
0.108, 0.099
0.101, 0.099
0.071, 0.083
0.099, 0.118
0.093, 0.067
0.099, 0.099
0.096, 0.091
0.098, 0.101
0.097, 0.094
0.095, 0.121
0.071, 0.069
0.108, 0.098
0.113, 0.093
0.102, 0.097
0.096, 0.111
0.093, 0.126
0.098, 0.096
0.098, 0.093
0.076, 0.073
0.098, 0.081
0.136, 0.105
0.071, 0.068
0.095, 0.103
0.095, 0.105
0.107, 0.097
0.096, 0.106
0.095, 0.127
0.098, 0.113
0.098, 0.094
0.097, 0.075
0.099, 0.105
0.094, 0.098
0.112, 0.101
0.097, 0.094
0.1, 0.093
0.073, 0.07
0.107, 0.093
0.122, 0.102
0.14, 0.1
0.096, 0.092
0.093, 0.195
0.097, 0.112
0.094, 0.094
0.073, 0.074
0.095, 0.109
0.098, 0.104
0.095, 0.119
0.093, 0.099
0.073, 0.08
0.097, 0.096
0.106, 0.122
0.134, 0.099
0.125, 0.112
0.073, 0.072
0.066, 0.072
0.096, 0.1
0.123, 0.095
0.123, 0.098
0.094, 0.094
0.098, 0.103
0.097, 0.092
0.107, 0.102
0.098, 0.096
0.073, 0.08
0.094, 0.073
0.091, 0.104
0.071, 0.069
0.066, 0.078
0.1, 0.1
0.099, 0.072
0.104, 0.094
0.085, 0.116
0.094, 0.099
0.098, 0.112
0.071, 0.079
0.105, 0.101
0.107, 0.1
0.071, 0.071
0.11, 0.098
0.09, 0.125
0.067, 0.067
0.072, 0.075
0.101, 0.099
0.099, 0.099
0.115, 0.098
0.115, 0.098
0.091, 0.11
0.096, 0.103
0.098, 0.098
0.104, 0.119
0.092, 0.097
0.074, 0.075
0.093, 0.117
0.071, 0.109
0.077, 0.085
0.077, 0.093
0.106, 0.108
0.09, 0.099
0.101, 0.1
0.098, 0.096
0.102, 0.137
0.098, 0.116
0.097, 0.158
0.116, 0.102
0.116, 0.101
0.099, 0.097
0.093, 0.138
0.097, 0.116
0.099, 0.122
0.092, 0.097
0.096, 0.091
0.116, 0.111
0.101, 0.138
0.141, 0.1
0.066, 0.071
0.092, 0.099
0.112, 0.095
0.068, 0.072
0.115, 0.113
0.093, 0.1
0.093, 0.095
0.118, 0.096
0.102, 0.094
0.116, 0.111
0.085, 0.07
0.103, 0.092
0.121, 0.094
0.139, 0.102
0.101, 0.096
0.091, 0.074
0.13, 0.1
0.095, 0.098
0.098, 0.095
0.102, 0.103
0.092, 0.147
0.068, 0.073
0.122, 0.099
0.076, 0.072
0.097, 0.093
0.112, 0.128
0.098, 0.11
0.095, 0.098
0.072, 0.096
0.096, 0.125
0.073, 0.075
0.114, 0.099
0.076, 0.099
0.081, 0.073
0.103, 0.093
0.093, 0.108
0.094, 0.097
0.137, 0.107
0.067, 0.07
0.085, 0.068
0.072, 0.073
0.108, 0.104
0.094, 0.076
0.104, 0.097
0.098, 0.112
0.07, 0.113
0.129, 0.102
0.097, 0.094
0.141, 0.098
0.099, 0.095
0.1, 0.096
0.074, 0.068
0.067, 0.067
0.125, 0.099
0.099, 0.114
0.068, 0.071
0.117, 0.099
0.097, 0.096
0.098, 0.095
0.111, 0.107
0.103, 0.139
0.076, 0.071
0.093, 0.111
0.107, 0.099
0.099, 0.153
0.098, 0.095
0.07, 0.089
0.101, 0.099
0.07, 0.067
0.113, 0.092
0.073, 0.088
0.071, 0.069
0.074, 0.069
0.097, 0.072
0.098, 0.138
0.111, 0.135
0.099, 0.1
0.127, 0.096
0.1, 0.114
0.069, 0.071
0.103, 0.099
0.129, 0.1
0.105, 0.094
0.14, 0.093
0.079, 0.076
0.069, 0.068
0.091, 0.091
0.129, 0.096
0.067, 0.069
0.104, 0.089
0.094, 0.098
0.093, 0.091
0.102, 0.093
0.095, 0.092
0.118, 0.092
0.093, 0.099
0.127, 0.099
0.104, 0.094
0.099, 0.092
0.074, 0.076
0.1, 0.111
0.093, 0.099
0.098, 0.098
0.093, 0.095
0.099, 0.148
0.149, 0.103
0.107, 0.102
0.105, 0.098
0.09, 0.107
0.105, 0.113
0.13, 0.115
0.114, 0.106
0.103, 0.12
0.12, 0.093
0.098, 0.095
0.075, 0.069
0.072, 0.082
0.081, 0.11
0.1, 0.144
0.104, 0.098
0.113, 0.103
0.103, 0.097
0.098, 0.11
0.068, 0.076
0.095, 0.132
0.075, 0.067
0.132, 0.105
0.113, 0.085
0.072, 0.067
0.112, 0.11
0.1, 0.103
0.103, 0.099
0.092, 0.099
0.096, 0.117
0.132, 0.1
0.096, 0.11
0.095, 0.094
0.072, 0.067
0.1, 0.072
0.073, 0.073
0.103, 0.101
0.1, 0.096
0.072, 0.084
0.093, 0.111
0.093, 0.095
0.097, 0.113
0.067, 0.068
0.074, 0.073
0.096, 0.095
0.108, 0.1
0.096, 0.122
0.084, 0.067
0.094, 0.098
0.098, 0.098
0.14, 0.091
0.097, 0.116
0.131, 0.092
0.067, 0.073
0.1, 0.099
0.126, 0.1
0.074, 0.075
0.097, 0.101
0.123, 0.124
0.099, 0.071
0.101, 0.098
0.07, 0.081
0.113, 0.097
0.072, 0.074
0.069, 0.074
0.108, 0.109
0.099, 0.132
0.095, 0.115
0.112, 0.098
0.1, 0.1
0.099, 0.103
0.1, 0.099
0.105, 0.098
0.068, 0.086
0.121, 0.099
0.108, 0.094
0.093, 0.101
0.102, 0.132
0.093, 0.1
0.083, 0.081
0.099, 0.095
0.096, 0.116
0.099, 0.093
0.093, 0.118
0.092, 0.098
0.122, 0.099
0.095, 0.101
0.088, 0.072
0.075, 0.068
0.073, 0.069
0.067, 0.077
0.099, 0.095
0.135, 0.105
0.095, 0.098
0.094, 0.102
0.095, 0.097
0.097, 0.101
0.095, 0.128
0.113, 0.083
0.105, 0.1
0.133, 0.097
0.072, 0.068
0.1, 0.114
0.097, 0.091
0.095, 0.098
0.081, 0.123
0.094, 0.141
0.07, 0.067
0.099, 0.109
0.093, 0.099
0.073, 0.072
0.101, 0.098
0.072, 0.067
0.099, 0.12
0.078, 0.102
0.099, 0.122
0.096, 0.096
0.098, 0.102
0.117, 0.091
0.097, 0.13
0.096, 0.106
0.097, 0.102
0.09, 0.072
0.072, 0.098
0.099, 0.094
0.071, 0.067
0.074, 0.066
0.071, 0.072
0.098, 0.122
0.13, 0.097
0.115, 0.097
0.105, 0.122
0.074, 0.067
0.097, 0.095
0.068, 0.071
0.069, 0.107
0.094, 0.097
0.094, 0.1
0.112, 0.134
0.098, 0.098
0.096, 0.097
0.099, 0.124
0.079, 0.089
0.078, 0.081
0.067, 0.077
0.073, 0.072
0.067, 0.066
0.074, 0.072
0.08, 0.093
0.074, 0.067
0.099, 0.121
0.139, 0.099
0.118, 0.102
0.096, 0.091
0.114, 0.107
0.077, 0.067
0.078, 0.082
0.129, 0.102
0.095, 0.124
0.088, 0.074
0.094, 0.095
0.12, 0.098
0.077, 0.08
0.074, 0.072
0.094, 0.12
0.101, 0.112
0.078, 0.091
0.113, 0.0990000000001
0.099, 0.102
0.076, 0.068
0.126, 0.114
0.097, 0.094
0.106, 0.103
0.098, 0.101
0.104, 0.0939999999999
0.073, 0.07
0.1, 0.096
0.073, 0.092
0.093, 0.1
0.099, 0.113
0.094, 0.101
0.105, 0.101
0.102, 0.1
0.093, 0.118
0.099, 0.0979999999999
0.096, 0.094
0.102, 0.0760000000001
0.101, 0.094
0.104, 0.102
0.091, 0.098
0.098, 0.107
0.111, 0.104
0.071, 0.082
0.092, 0.089
0.094, 0.113
0.072, 0.086
0.098, 0.096
0.125, 0.094
0.078, 0.0790000000001
0.104, 0.0929999999999
0.103, 0.096
0.094, 0.115
0.071, 0.0990000000001
0.108, 0.102
0.124, 0.097
0.097, 0.114
0.1, 0.097
0.176, 0.1
0.099, 0.096
0.112, 0.094
0.11, 0.0910000000001
0.09, 0.0950000000001
0.074, 0.0709999999999
0.096, 0.092
0.074, 0.07
0.098, 0.1
0.099, 0.123
0.112, 0.112
0.132, 0.097
0.097, 0.0979999999999
0.106, 0.098
0.114, 0.0840000000001
0.073, 0.068
0.077, 0.067
0.102, 0.118
0.111, 0.102
0.077, 0.067
0.1, 0.102
0.077, 0.074
0.099, 0.118
0.095, 0.125
0.072, 0.0739999999999
0.081, 0.067
0.091, 0.0749999999999
0.075, 0.108
0.097, 0.098
0.097, 0.15
0.097, 0.105
0.096, 0.1
0.108, 0.099
0.134, 0.094
0.093, 0.0680000000001
0.099, 0.105
0.103, 0.157
0.073, 0.081
0.101, 0.099
0.072, 0.071
0.094, 0.1
0.093, 0.122
0.097, 0.096
0.099, 0.0869999999999
0.099, 0.111
0.094, 0.104
0.098, 0.12
0.099, 0.101
0.114, 0.103
0.069, 0.068
0.101, 0.105
0.067, 0.067
0.103, 0.103
0.095, 0.103
0.093, 0.0979999999999
0.097, 0.104
0.097, 0.099
0.092, 0.097
0.142, 0.099
0.094, 0.097
0.089, 0.0990000000001
0.094, 0.128
0.094, 0.114
0.109, 0.111
0.094, 0.094
0.093, 0.0990000000001
0.127, 0.095
0.067, 0.0669999999999
0.102, 0.11
0.098, 0.128
0.095, 0.134
0.071, 0.081
0.098, 0.112
0.125, 0.124
0.099, 0.094
0.096, 0.124
0.069, 0.0779999999999
0.067, 0.0720000000001
0.073, 0.0720000000001
0.094, 0.123
0.096, 0.116
0.12, 0.108
0.121, 0.096
0.066, 0.1
0.069, 0.0709999999999
0.091, 0.076
0.098, 0.134
0.144, 0.092
0.074, 0.0760000000001
0.102, 0.132
0.129, 0.178
0.099, 0.116
0.096, 0.143
0.101, 0.098
0.09, 0.077
0.137, 0.109
0.079, 0.092
0.067, 0.116
0.096, 0.0969999999999
0.115, 0.11
0.099, 0.097
0.095, 0.106
0.084, 0.082
0.074, 0.073
0.094, 0.124
0.114, 0.098
0.067, 0.07
0.101, 0.107
0.092, 0.1
0.067, 0.0709999999999
0.11, 0.124
0.101, 0.0979999999999
0.099, 0.0990000000001
0.068, 0.072
0.122, 0.1
0.127, 0.109
0.08, 0.0830000000001
0.073, 0.074
0.087, 0.09
0.099, 0.074
0.101, 0.067
0.108, 0.1
0.115, 0.099
0.076, 0.0739999999999
0.115, 0.095
0.08, 0.0749999999999
0.074, 0.073
0.094, 0.093
0.093, 0.1
0.106, 0.095
0.117, 0.0990000000001
0.095, 0.118
0.099, 0.074
0.082, 0.0720000000001
0.099, 0.101
0.068, 0.081
0.093, 0.102
0.075, 0.082
0.067, 0.067
0.069, 0.069
0.113, 0.099
0.096, 0.095
0.105, 0.099
0.074, 0.0830000000001
0.094, 0.095
0.088, 0.068
0.1, 0.099
0.071, 0.077
0.071, 0.0699999999999
0.074, 0.071
0.068, 0.071
0.098, 0.099
0.099, 0.0990000000001
0.096, 0.096
0.117, 0.104
0.121, 0.103
0.099, 0.098
0.067, 0.0709999999999
0.104, 0.105
0.098, 0.133
0.109, 0.138
0.099, 0.094
0.106, 0.102
0.137, 0.099
0.096, 0.096
0.101, 0.097
0.12, 0.214
0.1, 0.0979999999999
0.095, 0.102
0.074, 0.075
0.096, 0.0950000000001
0.082, 0.0870000000001
0.076, 0.166
0.067, 0.11
0.116, 0.1
0.074, 0.071
0.078, 0.073
0.105, 0.0979999999999
0.102, 0.124
0.08, 0.073
0.093, 0.0979999999999
0.101, 0.0950000000001
0.072, 0.101
0.121, 0.099
0.093, 0.1
0.091, 0.092
0.098, 0.104
0.1, 0.0990000000001
0.108, 0.102
0.113, 0.0990000000001
0.1, 0.099
0.075, 0.088
0.097, 0.108
0.102, 0.095
0.094, 0.094
0.099, 0.113
0.072, 0.068
0.099, 0.126
0.105, 0.1
0.102, 0.107
0.1, 0.0950000000001
0.104, 0.095
0.11, 0.12
0.075, 0.07
0.094, 0.092
0.072, 0.097
0.144, 0.107
0.122, 0.092
0.072, 0.07
0.068, 0.069
0.103, 0.098
0.103, 0.0960000000001
0.073, 0.1
0.098, 0.101
0.095, 0.0709999999999
0.093, 0.101
0.102, 0.07
0.105, 0.106
0.143, 0.1
0.096, 0.094
0.073, 0.078
0.077, 0.081
0.097, 0.094
0.098, 0.096
0.098, 0.135
0.136, 0.0990000000001
0.078, 0.068
0.096, 0.121
0.084, 0.091
0.12, 0.131
0.089, 0.074
0.112, 0.138
0.098, 0.0969999999999
0.1, 0.113
0.102, 0.107
0.115, 0.136
0.102, 0.105
0.098, 0.101
0.071, 0.073
0.096, 0.0960000000001
0.123, 0.1
0.096, 0.119
0.071, 0.07
0.097, 0.106
0.107, 0.103
0.088, 0.0880000000001
0.105, 0.095
0.098, 0.141
0.068, 0.07
0.134, 0.106
0.093, 0.093
0.096, 0.099
0.1, 0.131
0.071, 0.0709999999999
0.073, 0.073
0.094, 0.095
0.071, 0.0789999999999
0.123, 0.101
0.101, 0.108
0.127, 0.106
0.069, 0.072
0.074, 0.066
