Sending, 1000, search, requests, to, 192.168.1.2
0.112, 0.055, 0.0829999999999, 0.084
0.113, 0.113, 0.112, 0.104
0.115, 0.1, 1.104, 0.084
0.133, 0.094, 0.1, 0.095
0.11, 0.101, 0.115, 0.096
0.189, 0.094, 0.11, 0.094
0.098, 0.093, 0.097, 0.0979999999999
0.111, 0.095, 0.133, 0.096
0.132, 0.092, 0.1, 0.075
0.109, 0.097, 0.127, 0.107
0.072, 0.074, 0.089, 0.0720000000001
0.097, 0.099, 0.102, 0.098
0.094, 0.1, 0.0950000000001, 0.096
0.104, 0.095, 0.127, 0.077
0.071, 0.085, 0.093, 0.075
0.095, 0.087, 0.0899999999999, 0.073
0.1, 0.101, 0.1, 0.095
0.091, 0.116, 0.113, 0.097
0.101, 0.102, 0.096, 0.132
0.066, 0.074, 0.073, 0.0720000000001
0.108, 0.1, 0.108, 0.107
0.099, 0.098, 0.098, 0.113
0.092, 0.099, 0.107, 0.109
0.091, 0.097, 0.081, 0.081
0.104, 0.1, 0.103, 0.092
0.113, 0.07, 0.0690000000001, 0.077
0.128, 0.115, 0.096, 0.102
0.079, 0.086, 0.0760000000001, 0.089
0.106, 0.108, 0.1, 0.096
0.099, 0.099, 0.127, 0.094
0.12, 0.1, 0.103, 0.136
0.093, 0.098, 0.096, 0.099
0.09, 0.097, 0.109, 0.09
0.087, 0.094, 0.155, 0.0819999999999
0.073, 0.075, 0.106, 0.0829999999999
0.109, 0.136, 0.11, 0.0979999999999
0.077, 0.114, 0.114, 0.072
0.099, 0.101, 0.093, 0.0910000000001
0.115, 0.098, 0.098, 0.13
0.098, 0.076, 0.0910000000001, 0.077
0.095, 0.099, 0.109, 0.099
0.093, 0.095, 0.112, 0.102
0.094, 0.098, 0.0990000000001, 0.095
0.097, 0.104, 0.105, 0.096
0.092, 0.093, 0.14, 0.1
0.068, 0.069, 0.072, 0.074
0.066, 0.105, 0.076, 0.0829999999999
0.11, 0.1, 0.101, 0.1
0.094, 0.093, 0.114, 0.103
0.094, 0.094, 0.104, 0.0950000000001
0.11, 0.106, 0.1, 0.084
0.13, 0.083, 0.093, 0.0800000000001
0.107, 0.131, 0.125, 0.1
0.113, 0.087, 0.192, 0.0950000000001
0.101, 0.101, 0.103, 0.1
0.097, 0.093, 0.105, 0.0950000000001
0.096, 0.096, 0.116, 0.095
0.097, 0.097, 0.0990000000001, 0.11
0.094, 0.097, 0.15, 0.097
0.097, 0.097, 0.1, 0.0950000000001
0.09, 0.113, 0.078, 0.0790000000001
0.1, 0.094, 0.419, 0.094
0.101, 0.094, 0.149, 0.094
0.093, 0.094, 0.097, 0.101
0.072, 0.075, 0.092, 0.088
0.103, 0.107, 0.0990000000001, 0.096
0.095, 0.095, 0.11, 0.101
0.093, 0.108, 0.143, 0.099
0.075, 0.092, 0.107, 0.118
0.104, 0.101, 0.113, 0.106
0.069, 0.089, 0.174, 0.077
0.077, 0.081, 0.116, 0.081
0.071, 0.083, 0.1, 0.0870000000001
0.098, 0.096, 0.101, 0.099
0.147, 0.096, 0.109, 0.0950000000001
0.093, 0.104, 0.129, 0.125
0.069, 0.09, 0.138, 0.08
0.072, 0.086, 0.1, 0.084
0.097, 0.081, 0.121, 0.075
0.093, 0.076, 0.085, 0.07
0.086, 0.11, 0.074, 0.082
0.095, 0.097, 0.0979999999999, 0.0979999999999
0.1, 0.094, 0.101, 0.094
0.109, 0.094, 0.106, 0.105
0.092, 0.105, 0.0990000000001, 0.095
0.093, 0.098, 0.099, 0.1
0.102, 0.13, 0.095, 0.099
0.071, 0.099, 0.0950000000001, 0.086
0.081, 0.071, 0.105, 0.081
0.101, 0.1, 0.149, 0.137
0.099, 0.102, 0.095, 0.095
0.095, 0.099, 0.107, 0.11
0.093, 0.104, 0.104, 0.092
0.095, 0.102, 0.113, 0.1
0.108, 0.094, 0.1, 0.093
0.098, 0.099, 0.1, 0.136
0.14, 0.096, 0.175, 0.113
0.094, 0.137, 0.101, 0.136
0.129, 0.097, 0.124, 0.11
0.097, 0.097, 0.1, 0.1
0.097, 0.148, 0.102, 0.094
0.119, 0.08, 0.113, 0.116
0.088, 0.077, 0.0899999999999, 0.0789999999999
0.114, 0.109, 0.123, 0.1
0.103, 0.093, 0.101, 0.101
0.068, 0.09, 0.101, 0.0880000000001
0.093, 0.102, 0.105, 0.108
0.106, 0.095, 0.104, 0.098
0.095, 0.094, 0.093, 0.101
0.093, 0.095, 0.102, 0.099
0.1, 0.095, 0.12, 0.102
0.129, 0.099, 0.103, 0.093
0.093, 0.115, 0.105, 0.0950000000001
0.073, 0.074, 0.141, 0.0760000000001
0.1, 0.068, 0.075, 0.119
0.106, 0.072, 0.075, 0.0910000000001
0.096, 0.138, 0.097, 0.105
0.089, 0.112, 0.09, 0.0869999999999
0.092, 0.094, 0.099, 0.094
0.093, 0.134, 0.096, 0.093
0.096, 0.097, 0.095, 0.164
0.152, 0.095, 0.094, 0.101
0.098, 0.102, 0.099, 0.095
0.143, 0.099, 0.107, 0.105
0.084, 0.073, 0.154, 0.0709999999999
0.095, 0.096, 0.096, 0.131
0.097, 0.095, 0.1, 0.093
0.107, 0.099, 0.093, 0.096
0.104, 0.07, 0.078, 0.081
0.149, 0.155, 0.102, 0.104
0.093, 0.103, 0.103, 0.102
0.122, 0.09, 0.085, 0.078
0.1, 0.098, 0.112, 0.098
0.07, 0.093, 0.0899999999999, 0.09
0.098, 0.1, 0.115, 0.099
0.119, 0.105, 0.097, 0.098
0.1, 0.094, 0.113, 0.0929999999999
0.095, 0.072, 0.071, 0.071
0.094, 0.094, 0.125, 0.094
0.078, 0.07, 0.076, 0.088
0.077, 0.077, 0.0790000000001, 0.085
0.078, 0.088, 0.0899999999999, 0.08
0.108, 0.093, 0.116, 0.0979999999999
0.077, 0.072, 0.122, 0.117
0.1, 0.093, 0.096, 0.116
0.093, 0.103, 0.127, 0.108
0.094, 0.109, 0.101, 0.096
0.09, 0.086, 0.07, 0.071
0.121, 0.143, 0.117, 0.102
0.101, 0.095, 0.099, 0.094
0.13, 0.13, 0.101, 0.094
0.078, 0.088, 0.085, 0.072
0.098, 0.099, 0.095, 0.103
0.102, 0.106, 0.108, 0.104
0.102, 0.11, 0.133, 0.101
0.097, 0.1, 0.0990000000001, 0.137
0.094, 0.152, 0.109, 0.1
0.108, 0.093, 0.105, 0.095
0.149, 0.123, 0.111, 0.102
0.101, 0.094, 0.0950000000001, 0.095
0.094, 0.076, 0.074, 0.0720000000001
0.092, 0.101, 0.108, 0.099
0.098, 0.095, 0.103, 0.149
0.068, 0.073, 0.111, 0.0979999999999
0.094, 0.098, 0.134, 0.095
0.103, 0.1, 0.101, 0.099
0.094, 0.1, 0.094, 0.093
0.123, 0.094, 0.0969999999999, 0.094
0.068, 0.076, 0.118, 0.076
0.121, 0.094, 0.12, 0.094
0.094, 0.097, 0.139, 0.12
0.1, 0.169, 0.0939999999999, 0.153
0.078, 0.094, 0.082, 0.126
0.097, 0.099, 0.105, 0.102
0.084, 0.111, 0.099, 0.0899999999999
0.098, 0.095, 0.137, 0.096
0.095, 0.098, 0.095, 0.157
0.098, 0.103, 0.099, 0.105
0.098, 0.14, 0.113, 0.147
0.092, 0.105, 0.096, 0.108
0.07, 0.113, 0.0829999999999, 0.076
0.098, 0.098, 0.0990000000001, 0.093
0.097, 0.095, 0.096, 0.103
0.077, 0.089, 0.1, 0.0779999999999
0.09, 0.077, 0.09, 0.096
0.07, 0.089, 0.11, 0.09
0.109, 0.108, 0.107, 0.101
0.082, 0.075, 0.0739999999999, 0.068
0.106, 0.128, 0.106, 0.1
0.075, 0.077, 0.1, 0.076
0.105, 0.136, 0.099, 0.103
0.097, 0.093, 0.0979999999999, 0.1
0.097, 0.094, 0.099, 0.101
0.093, 0.108, 0.141, 0.118
0.122, 0.099, 0.101, 0.097
0.1, 0.122, 0.147, 0.108
0.099, 0.135, 0.102, 0.096
0.103, 0.098, 0.106, 0.0979999999999
0.091, 0.1, 0.098, 0.074
0.095, 0.102, 0.097, 0.097
0.098, 0.096, 0.102, 0.159
0.113, 0.123, 0.1, 0.094
0.095, 0.101, 0.108, 0.0939999999999
0.095, 0.101, 0.123, 0.155
0.154, 0.136, 0.125, 0.111
0.103, 0.099, 0.104, 0.093
0.093, 0.098, 0.204, 0.109
0.098, 0.136, 0.102, 0.095
0.097, 0.119, 0.103, 0.0859999999999
4.649, 0.104, 0.107, 0.096
0.108, 0.097, 0.101, 0.094
0.093, 0.095, 0.157, 0.102
0.093, 0.079, 0.099, 0.075
0.101, 0.108, 0.144, 0.105
0.105, 0.098, 0.098, 0.102
0.098, 0.132, 0.097, 0.099
0.096, 0.107, 0.107, 0.094
0.108, 0.101, 0.097, 0.106
0.095, 0.1, 0.0979999999999, 0.123
0.085, 0.091, 0.0810000000001, 0.123
0.091, 0.1, 0.115, 0.09
0.124, 0.094, 0.093, 0.097
0.099, 0.096, 0.094, 0.0939999999999
0.108, 0.103, 0.126, 0.097
0.106, 0.098, 0.074, 0.077
0.128, 0.097, 0.096, 0.091
0.097, 0.109, 0.095, 0.084
0.094, 0.145, 0.099, 0.097
0.149, 0.098, 0.0950000000001, 0.0790000000001
0.099, 0.094, 0.136, 0.0929999999999
0.094, 0.093, 0.134, 0.0939999999999
0.074, 0.102, 0.127, 0.08
0.093, 0.1, 0.102, 0.099
0.093, 0.095, 0.096, 0.0990000000001
0.135, 0.101, 0.118, 0.147
0.099, 0.131, 0.099, 0.145
0.101, 0.107, 0.096, 0.101
0.121, 0.095, 0.0960000000001, 0.101
0.101, 0.105, 0.104, 0.099
0.1, 0.142, 0.131, 0.123
0.1, 0.082, 0.114, 0.084
0.101, 0.099, 0.1, 0.099
0.12, 0.108, 0.105, 0.0950000000001
0.129, 0.1, 0.113, 0.111
0.098, 0.114, 0.107, 0.1
0.092, 0.101, 0.153, 0.095
0.099, 0.16, 0.103, 0.0950000000001
0.083, 0.08, 0.077, 0.1
0.084, 0.128, 0.106, 0.093
0.075, 0.079, 0.111, 0.068
0.095, 0.129, 0.102, 0.0910000000001
0.089, 0.131, 0.1, 0.085
0.103, 0.105, 0.095, 0.113
0.093, 0.105, 0.102, 0.105
0.094, 0.109, 0.105, 0.085
0.099, 0.096, 0.106, 0.092
0.083, 0.089, 0.0920000000001, 0.091
0.093, 0.086, 0.12, 0.078
0.104, 0.1, 0.151, 0.101
0.111, 0.094, 0.099, 0.099
0.109, 0.117, 0.096, 0.125
0.118, 0.095, 0.094, 0.095
0.112, 0.102, 0.115, 0.102
0.101, 0.094, 0.099, 0.0979999999999
0.103, 0.094, 0.1, 0.129
0.14, 0.137, 0.163, 0.099
0.104, 0.094, 0.101, 0.138
0.103, 0.097, 0.1, 0.095
0.168, 0.099, 0.0830000000001, 0.0829999999999
0.128, 0.095, 0.104, 0.1
0.113, 0.107, 0.152, 0.115
0.109, 0.087, 0.095, 0.0769999999999
0.091, 0.088, 0.168, 0.073
0.111, 0.098, 0.094, 0.094
0.128, 0.108, 0.094, 0.146
0.124, 0.094, 0.106, 0.104
0.125, 0.104, 0.097, 0.095
0.11, 0.082, 0.076, 0.0720000000001
0.175, 0.099, 0.123, 0.0959999999999
0.117, 0.098, 0.136, 0.139
0.108, 0.135, 0.094, 0.11
0.1, 0.078, 0.109, 0.0849999999999
0.115, 0.098, 0.096, 0.1
0.129, 0.111, 0.122, 0.141
0.153, 0.094, 0.104, 0.1
0.107, 0.102, 0.151, 0.127
0.103, 0.1, 0.101, 0.0930000000001
0.13, 0.073, 0.117, 0.0710000000002
0.158, 0.08, 0.118, 0.076
0.103, 0.1, 0.0979999999999, 0.095
0.102, 0.101, 0.108, 0.127
0.101, 0.116, 0.105, 0.095
0.127, 0.114, 0.113, 0.0990000000001
0.278, 0.092, 0.107, 0.148
0.121, 0.095, 0.101, 0.0959999999999
0.111, 0.136, 0.103, 0.094
0.102, 0.13, 0.099, 0.0929999999999
0.101, 0.1, 0.108, 0.086
0.116, 0.0869999999999, 0.1, 0.0820000000001
0.095, 0.095, 0.101, 0.095
0.123, 0.069, 0.09, 0.076
0.106, 0.099, 0.101, 0.0979999999999
0.111, 0.09, 0.093, 0.0979999999999
0.15, 0.085, 0.085, 0.078
0.092, 0.101, 0.0979999999999, 0.095
0.1, 0.1, 0.153, 0.0990000000001
0.101, 0.094, 0.106, 0.0929999999999
0.097, 0.098, 0.099, 0.13
0.095, 0.093, 0.123, 0.111
0.097, 0.068, 0.09, 0.068
0.098, 0.067, 0.074, 0.0719999999998
0.09, 0.087, 0.0910000000001, 0.094
0.102, 0.095, 0.101, 0.102
0.13, 0.108, 0.0960000000001, 0.1
0.094, 0.095, 0.1, 0.097
0.074, 0.08, 0.069, 0.073
0.098, 0.108, 0.0969999999999, 0.0979999999999
0.072, 0.068, 0.068, 0.073
0.098, 0.1, 0.111, 0.103
0.1, 0.094, 0.096, 0.0990000000001
0.123, 0.103, 0.143, 0.1
0.093, 0.098, 0.099, 0.11
0.093, 0.094, 0.096, 0.1
0.095, 0.132, 0.091, 0.0910000000001
0.106, 0.136, 0.105, 0.094
0.097, 0.096, 0.139, 0.0989999999998
0.106, 0.098, 0.0939999999999, 0.097
0.095, 0.096, 0.103, 0.097
0.095, 0.094, 0.096, 0.0950000000002
0.13, 0.101, 0.098, 0.0979999999999
0.1, 0.101, 0.102, 0.125
0.096, 0.086, 0.0950000000001, 0.0850000000001
0.068, 0.072, 0.084, 0.0690000000001
0.099, 0.138, 0.095, 0.137
0.081, 0.094, 0.0800000000001, 0.121
0.119, 0.1, 0.0950000000001, 0.137
0.144, 0.095, 0.095, 0.11
0.094, 0.096, 0.0950000000001, 0.097
0.097, 0.115, 0.0960000000001, 0.0960000000001
0.101, 0.093, 0.1, 0.11
0.094, 0.131, 0.101, 0.095
0.098, 0.099, 0.105, 0.102
0.077, 0.109, 0.104, 0.0830000000001
0.105, 0.094, 0.095, 0.107
0.093, 0.104, 0.095, 0.095
0.096, 0.095, 0.097, 0.0939999999998
0.128, 0.096, 0.096, 0.1
0.097, 0.099, 0.094, 0.105
0.096, 0.093, 0.088, 0.0960000000001
0.101, 0.099, 0.098, 0.104
0.097, 0.099, 0.0969999999999, 0.0959999999999
0.106, 0.095, 0.0950000000001, 0.104
0.098, 0.081, 0.0789999999999, 0.0849999999999
0.099, 0.111, 0.099, 0.095
0.094, 0.101, 0.121, 0.0990000000001
0.099, 0.105, 0.0950000000001, 0.0960000000001
0.09, 0.084, 0.1, 0.123
0.104, 0.094, 0.0939999999999, 0.0959999999999
0.096, 0.097, 0.097, 0.103
0.093, 0.096, 0.103, 0.128
0.13, 0.097, 0.0979999999999, 0.102
0.109, 0.078, 0.082, 0.078
0.107, 0.101, 0.1, 0.097
0.138, 0.093, 0.0950000000001, 0.103
0.105, 0.134, 0.094, 0.1
0.111, 0.097, 0.162, 0.095
0.068, 0.07, 0.0720000000001, 0.0690000000001
0.073, 0.069, 0.069, 0.073
0.093, 0.095, 0.129, 0.0979999999999
0.102, 0.094, 0.154, 0.095
0.093, 0.093, 0.1, 0.0989999999998
0.095, 0.093, 0.0979999999999, 0.095
0.099, 0.1, 0.094, 0.1
0.1, 0.095, 0.151, 0.0960000000001
0.109, 0.101, 0.095, 0.137
0.094, 0.102, 0.142, 0.101
0.1, 0.075, 0.092, 0.081
0.112, 0.099, 0.097, 0.092
0.093, 0.095, 0.13, 0.102
0.073, 0.101, 0.0819999999999, 0.128
0.092, 0.071, 0.071, 0.073
0.094, 0.102, 0.104, 0.095
0.085, 0.094, 0.127, 0.0840000000002
0.123, 0.101, 0.096, 0.1
0.089, 0.072, 0.092, 0.0830000000001
0.148, 0.101, 0.097, 0.097
0.141, 0.098, 0.0950000000001, 0.106
0.072, 0.079, 0.077, 0.102
0.173, 0.099, 0.103, 0.0979999999999
0.097, 0.144, 0.093, 0.0929999999999
0.072, 0.073, 0.071, 0.0769999999999
0.094, 0.106, 0.099, 0.094
0.097, 0.133, 0.109, 0.112
0.067, 0.075, 0.08, 0.067
0.091, 0.085, 0.0929999999999, 0.106
0.108, 0.117, 0.105, 0.115
0.103, 0.11, 0.0939999999999, 0.102
0.091, 0.095, 0.094, 0.114
0.094, 0.099, 0.124, 0.097
0.121, 0.126, 0.1, 0.097
0.093, 0.099, 0.123, 0.126
0.099, 0.095, 0.158, 0.102
0.096, 0.095, 0.116, 0.0959999999999
0.093, 0.106, 0.105, 0.101
0.088, 0.098, 0.092, 0.086
0.098, 0.117, 0.1, 0.101
0.067, 0.073, 0.098, 0.0739999999999
0.095, 0.085, 0.174, 0.0849999999999
0.09, 0.096, 0.202, 0.097
0.132, 0.109, 0.103, 0.095
0.101, 0.116, 0.096, 0.0959999999999
0.092, 0.129, 0.1, 0.0990000000001
0.157, 0.099, 0.1, 0.094
0.093, 0.094, 0.101, 0.116
0.095, 0.097, 0.104, 0.0979999999999
0.095, 0.104, 0.0950000000001, 0.0989999999998
0.106, 0.103, 0.1, 0.0960000000001
0.093, 0.125, 0.098, 0.095
0.095, 0.105, 0.0979999999999, 0.107
0.1, 0.102, 0.0960000000001, 0.107
0.103, 0.095, 0.0960000000001, 0.0990000000001
0.093, 0.101, 0.105, 0.095
0.095, 0.099, 0.0950000000001, 0.105
0.111, 0.1, 0.15, 0.097
0.097, 0.096, 0.094, 0.101
0.098, 0.101, 0.132, 0.13
0.097, 0.102, 0.1, 0.103
0.082, 0.077, 0.097, 0.0709999999999
0.099, 0.098, 0.101, 0.0950000000002
0.095, 0.123, 0.101, 0.097
0.071, 0.07, 0.117, 0.094
0.094, 0.112, 0.095, 0.128
0.093, 0.096, 0.0939999999999, 0.102
0.1, 0.094, 0.106, 0.103
0.1, 0.094, 0.0979999999999, 0.137
0.095, 0.102, 0.11, 0.0979999999999
0.116, 0.097, 0.101, 0.103
0.083, 0.093, 0.089, 0.139
0.118, 0.094, 0.103, 0.176
0.097, 0.101, 0.104, 0.1
0.116, 0.094, 0.095, 0.0960000000001
0.095, 0.109, 0.094, 0.101
0.08, 0.09, 0.0990000000001, 0.0899999999999
0.096, 0.114, 0.098, 0.0979999999999
0.103, 0.095, 0.1, 0.0979999999999
0.104, 0.099, 0.095, 0.105
0.096, 0.097, 0.117, 0.0990000000001
0.101, 0.127, 0.095, 0.094
0.068, 0.111, 0.0859999999999, 0.0689999999999
0.095, 0.116, 0.104, 0.101
0.09, 0.096, 0.093, 0.0920000000002
0.099, 0.1, 0.1, 0.104
0.093, 0.1, 0.104, 0.103
0.093, 0.103, 0.102, 0.112
0.098, 0.101, 0.097, 0.139
0.072, 0.067, 0.073, 0.0739999999999
0.099, 0.1, 0.106, 0.0979999999999
0.096, 0.09, 0.125, 0.094
0.142, 0.118, 0.0979999999999, 0.102
0.094, 0.084, 0.085, 0.107
0.087, 0.076, 0.0840000000001, 0.1
0.094, 0.097, 0.105, 0.107
0.191, 0.097, 0.102, 0.1
0.101, 0.104, 0.101, 0.0990000000001
0.099, 0.108, 0.0950000000001, 0.094
0.113, 0.073, 0.082, 0.075
0.147, 0.091, 0.096, 0.095
0.086, 0.072, 0.074, 0.076
0.109, 0.137, 0.139, 0.095
0.082, 0.076, 0.077, 0.0849999999999
0.096, 0.093, 0.099, 0.0959999999999
0.11, 0.105, 0.098, 0.118
0.098, 0.163, 0.117, 0.128
0.093, 0.095, 0.095, 0.129
0.108, 0.095, 0.1, 0.1
0.095, 0.099, 0.096, 0.094
0.092, 0.093, 0.095, 0.1
0.095, 0.094, 0.0950000000001, 0.108
0.07, 0.071, 0.075, 0.0769999999999
0.084, 0.073, 0.095, 0.0899999999999
0.101, 0.095, 0.097, 0.0979999999999
0.095, 0.094, 0.0979999999999, 0.105
0.088, 0.083, 0.0910000000001, 0.0900000000001
0.094, 0.1, 0.094, 0.1
0.094, 0.093, 0.1, 0.0959999999999
0.1, 0.094, 0.111, 0.14
0.101, 0.098, 0.095, 0.103
0.1, 0.092, 0.095, 0.1
0.072, 0.077, 0.0720000000001, 0.0770000000001
0.131, 0.117, 0.104, 0.0990000000001
0.104, 0.096, 0.102, 0.13
0.095, 0.137, 0.096, 0.0980000000002
0.097, 0.107, 0.1, 0.0960000000001
0.077, 0.094, 0.081, 0.089
0.106, 0.111, 0.0990000000001, 0.103
0.073, 0.073, 0.111, 0.0870000000002
0.095, 0.101, 0.113, 0.0979999999999
0.098, 0.091, 0.101, 0.094
0.078, 0.096, 0.111, 0.078
0.068, 0.067, 0.119, 0.067
0.087, 0.067, 0.113, 0.068
0.101, 0.102, 0.156, 0.106
0.097, 0.093, 0.158, 0.097
0.094, 0.101, 0.146, 0.103
0.092, 0.107, 0.284, 0.1
0.094, 0.111, 0.196, 0.095
0.085, 0.079, 0.108, 0.0739999999999
0.104, 0.095, 0.13, 0.0930000000001
0.093, 0.1, 0.133, 0.102
0.156, 0.098, 0.094, 0.123
0.096, 0.105, 0.095, 0.108
0.08, 0.079, 0.081, 0.0990000000001
0.092, 0.095, 0.105, 0.102
0.094, 0.1, 0.132, 0.122
0.105, 0.095, 0.094, 0.126
0.068, 0.075, 0.067, 0.0849999999999
0.101, 0.094, 0.118, 0.124
0.101, 0.102, 0.099, 0.101
0.125, 0.094, 0.093, 0.135
0.097, 0.1, 0.099, 0.123
0.099, 0.111, 0.104, 0.111
0.098, 0.094, 0.1, 0.119
0.097, 0.103, 0.0990000000001, 0.121
0.107, 0.094, 0.0990000000001, 0.119
0.096, 0.094, 0.108, 0.106
0.097, 0.094, 0.099, 0.107
0.09, 0.08, 0.0829999999999, 0.139
0.097, 0.094, 0.0929999999999, 0.1
0.099, 0.094, 0.117, 0.144
0.097, 0.126, 0.165, 0.125
0.094, 0.1, 0.1, 0.194
0.095, 0.095, 0.103, 0.104
0.097, 0.093, 0.095, 0.126
0.101, 0.096, 0.0979999999999, 0.115
0.099, 0.096, 0.113, 0.114
0.102, 0.089, 0.092, 0.134
0.106, 0.094, 0.153, 0.114
0.098, 0.095, 0.094, 0.097
0.096, 0.095, 0.095, 0.11
0.125, 0.094, 0.1, 0.0989999999998
0.101, 0.095, 0.118, 0.102
0.117, 0.107, 0.111, 0.103
0.099, 0.098, 0.088, 0.115
0.101, 0.12, 0.081, 0.11
0.103, 0.095, 0.08, 0.104
0.1, 0.099, 0.099, 0.0989999999998
0.098, 0.099, 0.101, 0.106
0.124, 0.1, 0.094, 0.11
0.1, 0.098, 0.106, 0.101
0.151, 0.107, 0.093, 0.1
0.092, 0.134, 0.0869999999999, 0.106
0.103, 0.096, 0.094, 0.117
0.072, 0.069, 0.068, 0.109
0.094, 0.094, 0.102, 0.101
0.08, 0.086, 0.0840000000001, 0.114
0.089, 0.1, 0.0869999999999, 0.0990000000001
0.102, 0.099, 0.104, 0.0989999999998
0.095, 0.102, 0.143, 0.0979999999999
0.099, 0.101, 0.096, 0.105
0.091, 0.095, 0.0950000000001, 0.103
0.1, 0.107, 0.101, 0.102
0.099, 0.131, 0.135, 0.115
0.112, 0.117, 0.094, 0.105
0.096, 0.095, 0.111, 0.0989999999998
0.084, 0.085, 0.0709999999999, 0.076
0.086, 0.079, 0.097, 0.089
0.103, 0.097, 0.109, 0.108
0.097, 0.105, 0.096, 0.0990000000001
0.129, 0.105, 0.103, 0.112
0.075, 0.072, 0.077, 0.157
0.149, 0.099, 0.097, 0.0990000000001
0.113, 0.139, 0.094, 0.097
0.095, 0.114, 0.111, 0.13
0.071, 0.069, 0.08, 0.0739999999999
0.074, 0.079, 0.0859999999999, 0.078
0.098, 0.105, 0.095, 0.113
0.099, 0.098, 0.094, 0.101
0.146, 0.108, 0.096, 0.142
0.076, 0.09, 0.077, 0.123
0.095, 0.118, 0.0990000000001, 0.0969999999998
0.094, 0.154, 0.099, 0.108
0.094, 0.101, 0.095, 0.144
0.095, 0.118, 0.108, 0.142
0.1, 0.098, 0.135, 0.0960000000001
0.082, 0.082, 0.081, 0.115
0.094, 0.095, 0.107, 0.0989999999998
0.094, 0.098, 0.112, 0.108
0.081, 0.079, 0.077, 0.097
0.095, 0.096, 0.093, 0.094
0.119, 0.097, 0.1, 0.129
0.067, 0.071, 0.0680000000001, 0.068
0.098, 0.099, 0.095, 0.0990000000001
0.071, 0.073, 0.101, 0.076
0.093, 0.094, 0.0990000000001, 0.0959999999999
0.076, 0.084, 0.077, 0.0910000000001
0.072, 0.068, 0.074, 0.0680000000002
0.103, 0.094, 0.152, 0.107
0.097, 0.1, 0.093, 0.1
0.095, 0.109, 0.1, 0.0980000000002
0.113, 0.099, 0.1, 0.0990000000001
0.095, 0.096, 0.0979999999999, 0.104
0.17, 0.094, 0.103, 0.117
0.137, 0.095, 0.103, 0.095
0.096, 0.106, 0.096, 0.097
0.073, 0.079, 0.089, 0.0880000000001
0.124, 0.1, 0.109, 0.101
0.1, 0.095, 0.111, 0.104
0.102, 0.094, 0.109, 0.0980000000002
0.099, 0.106, 0.102, 0.105
0.103, 0.107, 0.0950000000001, 0.095
0.08, 0.083, 0.09, 0.0830000000001
0.094, 0.096, 0.096, 0.0969999999998
0.095, 0.094, 0.094, 0.0980000000002
0.096, 0.095, 0.101, 0.0979999999999
0.097, 0.094, 0.0950000000001, 0.178
0.107, 0.159, 0.13, 0.146
0.099, 0.106, 0.096, 0.116
0.103, 0.095, 0.094, 0.104
0.075, 0.072, 0.071, 0.0760000000002
0.067, 0.07, 0.0790000000001, 0.0800000000001
0.093, 0.096, 0.095, 0.0930000000001
0.118, 0.1, 0.085, 0.0820000000001
0.099, 0.099, 0.0950000000001, 0.1
0.131, 0.094, 0.133, 0.124
0.099, 0.0960000000001, 0.094, 0.0980000000002
0.099, 0.107, 0.1, 0.0960000000001
0.099, 0.0979999999999, 0.0950000000001, 0.0980000000002
0.095, 0.1, 0.1, 0.094
0.095, 0.095, 0.152, 0.095
0.102, 0.128, 0.095, 0.0770000000001
0.1, 0.123, 0.0990000000001, 0.097
0.137, 0.093, 0.0950000000001, 0.103
0.082, 0.103, 0.086, 0.0789999999999
0.097, 0.1, 0.125, 0.102
0.097, 0.106, 0.096, 0.105
0.12, 0.101, 0.0939999999999, 0.101
0.083, 0.088, 0.106, 0.094
0.125, 0.123, 0.094, 0.125
0.069, 0.069, 0.069, 0.0689999999999
0.094, 0.096, 0.096, 0.097
0.094, 0.0939999999999, 0.097, 0.129
0.086, 0.1, 0.089, 0.092
0.096, 0.0939999999999, 0.1, 0.12
0.082, 0.089, 0.108, 0.086
0.094, 0.0950000000001, 0.101, 0.094
0.072, 0.074, 0.0709999999999, 0.076
0.111, 0.104, 0.134, 0.1
0.099, 0.127, 0.099, 0.1
0.093, 0.135, 0.0979999999999, 0.0990000000001
0.104, 0.108, 0.0990000000001, 0.097
0.133, 0.116, 0.102, 0.1
0.1, 0.1, 0.101, 0.102
0.102, 0.096, 0.101, 0.1
0.08, 0.139, 0.07, 0.076
0.105, 0.13, 0.106, 0.084
0.099, 0.0979999999999, 0.11, 0.0959999999999
0.098, 0.0749999999999, 0.0840000000001, 0.073
0.07, 0.069, 0.0979999999999, 0.0720000000001
0.072, 0.0680000000001, 0.132, 0.109
0.098, 0.096, 0.0969999999999, 0.0979999999999
0.095, 0.096, 0.101, 0.11
0.098, 0.125, 0.126, 0.097
0.166, 0.093, 0.094, 0.148
0.083, 0.08, 0.088, 0.0929999999999
0.096, 0.099, 0.1, 0.095
0.069, 0.0680000000001, 0.071, 0.068
0.09, 0.117, 0.091, 0.094
0.098, 0.097, 0.111, 0.094
0.127, 0.108, 0.094, 0.095
0.095, 0.0960000000001, 0.098, 0.153
0.094, 0.096, 0.094, 0.095
0.099, 0.1, 0.12, 0.1
0.094, 0.101, 0.0979999999999, 0.13
0.104, 0.099, 0.097, 0.0910000000001
0.068, 0.089, 0.07, 0.0739999999999
0.07, 0.0859999999999, 0.073, 0.0720000000001
0.116, 0.112, 0.078, 0.078
0.098, 0.097, 0.153, 0.078
0.068, 0.0709999999999, 0.108, 0.0680000000002
0.081, 0.098, 0.112, 0.0990000000001
0.069, 0.124, 0.0800000000001, 0.105
0.104, 0.12, 0.096, 0.0990000000001
0.099, 0.133, 0.102, 0.1
0.095, 0.1, 0.103, 0.094
0.095, 0.111, 0.0939999999999, 0.097
0.097, 0.208, 0.095, 0.0990000000001
0.092, 0.101, 0.093, 0.0900000000001
0.079, 0.097, 0.081, 0.092
0.098, 0.131, 0.0990000000001, 0.156
0.099, 0.099, 0.106, 0.0959999999999
0.08, 0.106, 0.08, 0.0849999999999
0.101, 0.101, 0.093, 0.0950000000002
0.095, 0.0939999999999, 0.0939999999999, 0.106
0.09, 0.101, 0.089, 0.0899999999999
0.081, 0.098, 0.092, 0.102
0.127, 0.139, 0.096, 0.101
0.115, 0.0990000000001, 0.101, 0.152
0.078, 0.102, 0.091, 0.109
0.093, 0.099, 0.1, 0.0979999999999
0.115, 0.102, 0.116, 0.129
0.084, 0.0969999999999, 0.143, 0.0849999999999
0.1, 0.099, 0.096, 0.0960000000001
0.105, 0.095, 0.11, 0.095
0.093, 0.0990000000001, 0.101, 0.095
0.1, 0.12, 0.092, 0.0979999999999
0.094, 0.123, 0.097, 0.0979999999999
0.077, 0.115, 0.094, 0.0830000000001
0.148, 0.128, 0.099, 0.106
0.088, 0.11, 0.078, 0.0819999999999
0.094, 0.113, 0.108, 0.097
0.094, 0.136, 0.096, 0.1
0.103, 0.108, 0.096, 0.094
0.095, 0.128, 0.117, 0.097
0.094, 0.097, 0.094, 0.102
0.099, 0.142, 0.113, 0.0939999999998
0.105, 0.117, 0.137, 0.118
0.102, 0.1, 0.101, 0.112
0.072, 0.068, 0.0690000000001, 0.0789999999999
0.128, 0.096, 0.133, 0.097
0.096, 0.102, 0.102, 0.097
0.095, 0.094, 0.099, 0.104
0.096, 0.098, 0.1, 0.094
0.093, 0.096, 0.099, 0.151
0.087, 0.069, 0.0680000000001, 0.084
0.083, 0.072, 0.075, 0.0690000000001
0.099, 0.1, 0.101, 0.095
0.078, 0.093, 0.098, 0.0880000000001
0.106, 0.1, 0.102, 0.103
0.105, 0.101, 0.098, 0.14
0.073, 0.077, 0.08, 0.0819999999999
0.11, 0.096, 0.097, 0.115
0.099, 0.0990000000001, 0.1, 0.127
0.092, 0.095, 0.103, 0.102
0.075, 0.0869999999999, 0.0790000000001, 0.0799999999999
0.106, 0.484, 0.096, 0.108
0.157, 0.106, 0.101, 0.0979999999999
0.097, 0.0979999999999, 0.125, 0.1
0.097, 0.094, 0.113, 0.0950000000002
0.109, 0.096, 0.153, 0.0959999999999
0.097, 0.101, 0.1, 0.107
0.1, 0.1, 0.0990000000001, 0.097
0.102, 0.101, 0.099, 0.095
0.098, 0.096, 0.0990000000001, 0.0960000000001
0.082, 0.135, 0.075, 0.0740000000001
0.121, 0.16, 0.125, 0.1
0.116, 0.0870000000001, 0.085, 0.12
0.114, 0.104, 0.1, 0.095
0.093, 0.096, 0.109, 0.104
0.106, 0.096, 0.094, 0.131
0.098, 0.101, 0.096, 0.1
0.099, 0.102, 0.095, 0.101
0.101, 0.106, 0.096, 0.101
0.105, 0.1, 0.086, 0.0719999999998
0.163, 0.162, 0.0899999999999, 0.0900000000001
0.103, 0.1, 0.069, 0.067
0.106, 0.108, 0.106, 0.109
0.126, 0.108, 0.114, 0.107
0.12, 0.1, 0.103, 0.0819999999999
0.133, 0.098, 0.108, 0.116
0.096, 0.122, 0.085, 0.108
0.124, 0.103, 0.099, 0.095
0.159, 0.095, 0.1, 0.105
0.097, 0.085, 0.093, 0.119
0.157, 0.068, 0.084, 0.0929999999999
0.094, 0.071, 0.0680000000001, 0.0650000000002
0.083, 0.081, 0.0789999999999, 0.0819999999999
0.101, 0.101, 0.101, 0.101
0.107, 0.0979999999999, 0.1, 0.095
0.098, 0.099, 0.095, 0.129
0.104, 0.0990000000001, 0.105, 0.0989999999998
0.098, 0.096, 0.097, 0.097
0.122, 0.117, 0.108, 0.095
0.086, 0.123, 0.081, 0.086
0.099, 0.582, 0.0979999999999, 0.095
0.098, 0.101, 0.1, 0.101
0.097, 0.092, 0.0899999999999, 0.0990000000001
0.094, 0.125, 0.12, 0.108
0.089, 0.097, 0.0720000000001, 0.0800000000001
0.101, 0.104, 0.116, 0.11
0.107, 0.216, 0.108, 0.107
0.099, 0.095, 0.097, 0.0959999999999
0.089, 0.195, 0.0800000000001, 0.109
0.112, 0.117, 0.1, 0.102
0.165, 0.102, 0.116, 0.108
0.115, 0.093, 0.098, 0.094
0.134, 0.0950000000001, 0.096, 0.0969999999998
0.117, 0.096, 0.096, 0.0990000000001
0.079, 0.082, 0.086, 0.094
0.1, 0.099, 0.097, 0.1
0.076, 0.098, 0.075, 0.106
0.098, 0.099, 0.095, 0.095
0.095, 0.103, 0.102, 0.155
0.093, 0.096, 0.094, 0.095
0.094, 0.093, 0.153, 0.095
0.094, 0.113, 0.101, 0.0950000000002
0.093, 0.098, 0.106, 0.094
0.095, 0.098, 0.101, 0.1
0.103, 0.095, 0.094, 0.095
0.101, 0.114, 0.095, 0.094
0.121, 0.0960000000001, 0.0960000000001, 0.102
0.099, 0.099, 0.0990000000001, 0.0950000000002
0.094, 0.129, 0.0979999999999, 0.0979999999999
0.122, 0.109, 0.102, 0.11
0.117, 0.096, 0.103, 0.118
0.102, 0.099, 0.095, 0.095
0.099, 0.097, 0.073, 0.0720000000001
0.122, 0.093, 0.102, 0.095
0.149, 0.135, 0.131, 0.0960000000001
0.096, 0.0939999999999, 0.096, 0.166
0.092, 0.143, 0.0899999999999, 0.094
0.102, 0.098, 0.097, 0.094
0.102, 0.135, 0.0950000000001, 0.137
0.097, 0.1, 0.141, 0.095
0.099, 0.111, 0.095, 0.106
0.098, 0.0790000000001, 0.0920000000001, 0.0800000000001
0.108, 0.081, 0.0880000000001, 0.0880000000001
0.097, 0.069, 0.077, 0.0689999999999
0.094, 0.099, 0.095, 0.1
0.106, 0.143, 0.095, 0.0960000000001
0.105, 0.097, 0.096, 0.095
0.094, 0.093, 0.096, 0.0979999999999
0.075, 0.074, 0.077, 0.0739999999999
0.071, 0.0720000000001, 0.077, 0.073
0.094, 0.088, 0.092, 0.0960000000001
0.094, 0.0990000000001, 0.097, 0.1
0.111, 0.107, 0.095, 0.101
0.11, 0.096, 0.092, 0.097
0.099, 0.121, 0.111, 0.1
0.094, 0.093, 0.109, 0.106
0.099, 0.111, 0.101, 0.094
0.095, 0.104, 0.0979999999999, 0.095
0.093, 0.094, 0.109, 0.0929999999999
0.076, 0.092, 0.0779999999999, 0.0760000000002
0.105, 0.111, 0.138, 0.0990000000001
0.084, 0.128, 0.109, 0.0789999999999
0.091, 0.103, 0.097, 0.115
0.098, 0.12, 0.109, 0.101
0.097, 0.119, 0.097, 0.12
0.096, 0.099, 0.0950000000001, 0.104
0.094, 0.093, 0.095, 0.1
0.083, 0.121, 0.081, 0.095
0.085, 0.103, 0.092, 0.0960000000001
0.098, 0.101, 0.098, 0.0979999999999
0.085, 0.0869999999999, 0.134, 0.097
0.07, 0.074, 0.103, 0.0869999999999
0.094, 0.1, 0.101, 0.0979999999999
0.095, 0.157, 0.0990000000001, 0.111
0.092, 0.101, 0.093, 0.0930000000001
0.097, 0.111, 0.096, 0.0960000000001
0.099, 0.098, 0.097, 0.104
0.11, 0.119, 0.101, 0.097
0.068, 0.076, 0.068, 0.07
0.104, 0.094, 0.104, 0.094
0.093, 0.111, 0.0979999999999, 0.101
0.136, 0.098, 0.128, 0.102
0.126, 0.095, 0.109, 0.097
0.071, 0.115, 0.0910000000001, 0.0960000000001
0.081, 0.09, 0.101, 0.0979999999999
0.101, 0.0790000000001, 0.0990000000001, 0.105
0.094, 0.107, 0.109, 0.094
0.104, 0.128, 0.114, 0.095
0.082, 0.091, 0.126, 0.0870000000002
0.111, 0.1, 0.096, 0.137
0.113, 0.095, 0.0920000000001, 0.0869999999999
0.094, 0.115, 0.082, 0.0899999999999
0.1, 0.1, 0.134, 0.097
0.121, 0.143, 0.0960000000001, 0.109
0.102, 0.0990000000001, 0.096, 0.095
0.095, 0.099, 0.0950000000001, 0.133
0.101, 0.094, 0.159, 0.0960000000001
0.077, 0.08, 0.1, 0.0769999999999
0.066, 0.067, 0.077, 0.073
0.1, 0.102, 0.0950000000001, 0.094
0.082, 0.077, 0.0929999999999, 0.073
0.093, 0.1, 0.096, 0.0950000000002
0.096, 0.108, 0.086, 0.094
0.068, 0.07, 0.072, 0.0709999999999
0.08, 0.084, 0.0840000000001, 0.0870000000002
0.106, 0.094, 0.095, 0.106
0.1, 0.098, 0.0939999999999, 0.149
0.104, 0.1, 0.104, 0.097
0.084, 0.086, 0.098, 0.0740000000001
0.101, 0.102, 0.1, 0.097
0.1, 0.1, 0.0819999999999, 0.078
0.096, 0.098, 0.113, 0.097
0.086, 0.0950000000001, 0.089, 0.107
0.079, 0.07, 0.101, 0.076
0.083, 0.09, 0.089, 0.0720000000001
0.085, 0.085, 0.077, 0.0709999999999
0.099, 0.095, 0.093, 0.097
0.096, 0.1, 0.093, 0.0980000000002
0.099, 0.098, 0.1, 0.0979999999999
0.094, 0.117, 0.131, 0.095
0.11, 0.106, 0.0929999999999, 0.0990000000001
0.098, 0.265, 0.095, 0.0959999999999
0.108, 0.101, 0.071, 0.0709999999999
0.099, 0.109, 0.102, 0.094
0.095, 0.1, 0.095, 0.1
0.094, 0.113, 0.0979999999999, 0.1
0.103, 0.103, 0.1, 0.092
0.1, 0.094, 0.0939999999999, 0.116
0.105, 0.1, 0.1, 0.0960000000001
0.105, 0.105, 0.1, 0.104
0.093, 0.131, 0.097, 0.0959999999999
0.092, 0.106, 0.099, 0.115
0.1, 0.106, 0.114, 0.094
0.099, 0.105, 0.136, 0.0989999999998
0.075, 0.101, 0.131, 0.086
0.097, 0.096, 0.104, 0.144
0.081, 0.101, 0.072, 0.073
0.0869999999999, 0.088, 0.08, 0.155
0.088, 0.073, 0.067, 0.0720000000001
0.132, 0.146, 0.103, 0.103
0.087, 0.094, 0.077, 0.073
0.076, 0.084, 0.092, 0.0910000000001
0.094, 0.1, 0.0979999999999, 0.102
0.095, 0.116, 0.1, 0.097
0.08, 0.108, 0.0819999999999, 0.0960000000001
0.132, 0.17, 0.0969999999999, 0.0929999999999
0.102, 0.102, 0.093, 0.1
0.101, 0.1, 0.0870000000001, 0.115
0.099, 0.1, 0.138, 0.095
0.1, 0.106, 0.104, 0.102
0.116, 0.113, 0.117, 0.137
0.096, 0.104, 0.113, 0.1
0.17, 0.158, 0.11, 0.129
0.148, 0.101, 0.0960000000001, 0.0979999999999
0.133, 0.109, 0.115, 0.101
0.118, 0.104, 0.1, 0.106
0.092, 0.096, 0.0869999999999, 0.0789999999999
0.1, 0.097, 0.115, 0.116
0.131, 0.095, 0.093, 0.097
0.106, 0.119, 0.0950000000001, 0.137
0.099, 0.0950000000001, 0.095, 0.107
0.074, 0.098, 0.081, 0.0789999999999
0.104, 0.1, 0.0990000000001, 0.0979999999999
0.109, 0.095, 0.129, 0.107
0.095, 0.153, 0.103, 0.117
0.1, 0.096, 0.095, 0.146
0.099, 0.1, 0.093, 0.0980000000002
0.141, 0.116, 0.1, 0.111
0.072, 0.105, 0.107, 0.081
0.101, 0.227, 0.095, 0.111
0.16, 0.118, 0.091, 0.097
0.101, 0.104, 0.151, 0.125
0.094, 0.13, 0.097, 0.0960000000001
0.093, 0.088, 0.0790000000001, 0.081
0.072, 0.0709999999999, 0.076, 0.07
0.1, 0.094, 0.1, 0.097
0.093, 0.104, 0.095, 0.112
0.102, 0.089, 0.067, 0.073
0.103, 0.124, 0.106, 0.102
0.099, 0.089, 0.092, 0.137
0.163, 0.097, 0.1, 0.0989999999998
0.111, 0.081, 0.067, 0.0799999999999
0.143, 0.11, 0.131, 0.143
0.097, 0.098, 0.106, 0.0939999999998
0.094, 0.098, 0.092, 0.0979999999999
0.095, 0.177, 0.0950000000001, 0.095
0.078, 0.137, 0.074, 0.122
0.133, 0.097, 0.096, 0.1
0.1, 0.102, 0.0990000000001, 0.111
0.099, 0.0950000000001, 0.096, 0.095
0.141, 0.095, 0.101, 0.175
0.078, 0.07, 0.0739999999999, 0.0960000000001
0.098, 0.1, 0.102, 0.0939999999998
0.093, 0.08, 0.089, 0.0789999999999
0.107, 0.0950000000001, 0.094, 0.0930000000001
0.076, 0.0739999999999, 0.086, 0.068
0.104, 0.169, 0.108, 0.111
0.1, 0.137, 0.095, 0.1
0.096, 0.095, 0.094, 0.157
0.105, 0.099, 0.099, 0.14
0.11, 0.13, 0.095, 0.13
0.1, 0.099, 0.0960000000001, 0.094
0.118, 0.122, 0.124, 0.1
0.071, 0.098, 0.0779999999999, 0.0779999999998
0.095, 0.102, 0.0969999999999, 0.094
0.121, 0.103, 0.153, 0.157
0.1, 0.153, 0.126, 0.1
0.099, 0.118, 0.102, 0.095
0.102, 0.138, 0.099, 0.095
0.099, 0.0990000000001, 0.093, 0.097
0.095, 0.106, 0.11, 0.0990000000001
0.092, 0.108, 0.116, 0.111
0.1, 0.096, 0.106, 0.123
0.092, 0.118, 0.0910000000001, 0.094
0.096, 0.0979999999999, 0.122, 0.106
0.097, 0.096, 0.1, 0.103
0.099, 0.094, 0.105, 0.0979999999999
0.099, 0.097, 0.109, 0.0920000000002
0.081, 0.112, 0.0789999999999, 0.078
0.108, 0.112, 0.08, 0.0730000000002
0.105, 0.139, 0.095, 0.118
0.071, 0.103, 0.068, 0.07
0.094, 0.102, 0.0939999999999, 0.095
0.098, 0.101, 0.096, 0.0959999999999
0.095, 0.101, 0.0990000000001, 0.129
0.073, 0.094, 0.093, 0.0769999999999
0.079, 0.094, 0.073, 0.0690000000001
